AMBA/AXI/axi_slave/sim/test.vcd
$date
	Sat Apr 08 17:24:18 2023
$end
$version
	Icarus Verilog
$end
$timescale
	1ps
$end
$scope module tb_axi_slave $end
$var wire 5 ! M_AXI_ARADDR [4:0] $end
$var wire 2 " M_AXI_ARBURST [1:0] $end
$var wire 2 # M_AXI_ARID [1:0] $end
$var wire 8 $ M_AXI_ARLEN [7:0] $end
$var wire 3 % M_AXI_ARSIZE [2:0] $end
$var wire 1 & M_AXI_ARVALID $end
$var wire 5 ' M_AXI_AWADDR [4:0] $end
$var wire 2 ( M_AXI_AWBURST [1:0] $end
$var wire 2 ) M_AXI_AWID [1:0] $end
$var wire 8 * M_AXI_AWLEN [7:0] $end
$var wire 3 + M_AXI_AWSIZE [2:0] $end
$var wire 1 , M_AXI_AWVALID $end
$var wire 1 - M_AXI_BREADY $end
$var wire 2 . M_AXI_BRESP [1:0] $end
$var wire 1 / M_AXI_RREADY $end
$var wire 2 0 M_AXI_RRESP [1:0] $end
$var wire 1 1 M_AXI_WLAST $end
$var wire 4 2 M_AXI_WSTRB [3:0] $end
$var wire 1 3 M_AXI_WVALID $end
$var wire 1 4 M_AXI_WREADY $end
$var wire 32 5 M_AXI_WDATA [31:0] $end
$var wire 1 6 M_AXI_RVALID $end
$var wire 1 7 M_AXI_RLAST $end
$var wire 2 8 M_AXI_RID [1:0] $end
$var wire 32 9 M_AXI_RDATA [31:0] $end
$var wire 1 : M_AXI_BVALID $end
$var wire 2 ; M_AXI_BID [1:0] $end
$var wire 1 < M_AXI_AWREADY $end
$var wire 1 = M_AXI_ARREADY $end
$var reg 2 > axi_arid [1:0] $end
$var reg 1 ? axi_arvalid $end
$var reg 2 @ axi_awid [1:0] $end
$var reg 1 A axi_awvalid $end
$var reg 1 B axi_bready $end
$var reg 1 C axi_rready $end
$var reg 1 D axi_wlast $end
$var reg 1 E axi_wvalid $end
$var reg 1 F clk $end
$var reg 3 G cntr [2:0] $end
$var reg 1 H rstn $end
$var integer 32 I i [31:0] $end
$scope begin genblk2 $end
$upscope $end
$scope module u_axi_slave $end
$var wire 1 F S_AXI_ACLK $end
$var wire 5 J S_AXI_ARADDR [4:0] $end
$var wire 2 K S_AXI_ARBURST [1:0] $end
$var wire 1 H S_AXI_ARESETN $end
$var wire 2 L S_AXI_ARID [1:0] $end
$var wire 8 M S_AXI_ARLEN [7:0] $end
$var wire 3 N S_AXI_ARSIZE [2:0] $end
$var wire 1 & S_AXI_ARVALID $end
$var wire 5 O S_AXI_AWADDR [4:0] $end
$var wire 2 P S_AXI_AWBURST [1:0] $end
$var wire 2 Q S_AXI_AWID [1:0] $end
$var wire 8 R S_AXI_AWLEN [7:0] $end
$var wire 1 < S_AXI_AWREADY $end
$var wire 3 S S_AXI_AWSIZE [2:0] $end
$var wire 1 , S_AXI_AWVALID $end
$var wire 2 T S_AXI_BID [1:0] $end
$var wire 1 - S_AXI_BREADY $end
$var wire 2 U S_AXI_BRESP [1:0] $end
$var wire 1 : S_AXI_BVALID $end
$var wire 2 V S_AXI_RID [1:0] $end
$var wire 1 7 S_AXI_RLAST $end
$var wire 1 / S_AXI_RREADY $end
$var wire 2 W S_AXI_RRESP [1:0] $end
$var wire 1 6 S_AXI_RVALID $end
$var wire 32 X S_AXI_WDATA [31:0] $end
$var wire 1 1 S_AXI_WLAST $end
$var wire 1 4 S_AXI_WREADY $end
$var wire 4 Y S_AXI_WSTRB [3:0] $end
$var wire 1 3 S_AXI_WVALID $end
$var wire 5 Z next_wr_addr [4:0] $end
$var wire 5 [ next_rd_addr [4:0] $end
$var wire 32 \ S_AXI_RDATA [31:0] $end
$var wire 1 = S_AXI_ARREADY $end
$var reg 1 = axi_arready $end
$var reg 1 ] axi_awready $end
$var reg 2 ^ axi_bid [1:0] $end
$var reg 1 _ axi_bvalid $end
$var reg 2 ` axi_rid [1:0] $end
$var reg 1 a axi_rlast $end
$var reg 8 b axi_rlen [7:0] $end
$var reg 1 c axi_rvalid $end
$var reg 1 d axi_wready $end
$var reg 2 e r_bid [1:0] $end
$var reg 1 f r_bvalid $end
$var reg 5 g raddr [4:0] $end
$var reg 2 h rburst [1:0] $end
$var reg 8 i rlen [7:0] $end
$var reg 3 j rsize [2:0] $end
$var reg 5 k waddr [4:0] $end
$var reg 2 l wburst [1:0] $end
$var reg 8 m wlen [7:0] $end
$var reg 3 n wsize [2:0] $end
$var integer 32 o i [31:0] $end
$scope begin genblk1[0] $end
$upscope $end
$scope begin genblk1[1] $end
$upscope $end
$scope begin genblk1[2] $end
$upscope $end
$scope begin genblk1[3] $end
$upscope $end
$scope module rd_axi_addr $end
$var wire 2 p i_burst [1:0] $end
$var wire 5 q i_last_addr [4:0] $end
$var wire 8 r i_len [7:0] $end
$var wire 3 s i_size [2:0] $end
$var reg 5 t increment [4:0] $end
$var reg 5 u o_next_addr [4:0] $end
$var reg 5 v wrap_mask [4:0] $end
$upscope $end
$scope module wr_axi_addr $end
$var wire 2 w i_burst [1:0] $end
$var wire 5 x i_last_addr [4:0] $end
$var wire 8 y i_len [7:0] $end
$var wire 3 z i_size [2:0] $end
$var reg 5 { increment [4:0] $end
$var reg 5 | o_next_addr [4:0] $end
$var reg 5 } wrap_mask [4:0] $end
$upscope $end
$upscope $end
$upscope $end
$scope module tb_axi_slave $end
$scope module u_axi_slave $end
$var reg 8 ~ \mem[0] [7:0] $end
$upscope $end
$upscope $end
$scope module tb_axi_slave $end
$scope module u_axi_slave $end
$var reg 8 !" \mem[1] [7:0] $end
$upscope $end
$upscope $end
$scope module tb_axi_slave $end
$scope module u_axi_slave $end
$var reg 8 "" \mem[2] [7:0] $end
$upscope $end
$upscope $end
$scope module tb_axi_slave $end
$scope module u_axi_slave $end
$var reg 8 #" \mem[3] [7:0] $end
$upscope $end
$upscope $end
$scope module tb_axi_slave $end
$scope module u_axi_slave $end
$var reg 8 $" \mem[4] [7:0] $end
$upscope $end
$upscope $end
$scope module tb_axi_slave $end
$scope module u_axi_slave $end
$var reg 8 %" \mem[5] [7:0] $end
$upscope $end
$upscope $end
$scope module tb_axi_slave $end
$scope module u_axi_slave $end
$var reg 8 &" \mem[6] [7:0] $end
$upscope $end
$upscope $end
$scope module tb_axi_slave $end
$scope module u_axi_slave $end
$var reg 8 '" \mem[7] [7:0] $end
$upscope $end
$upscope $end
$scope module tb_axi_slave $end
$scope module u_axi_slave $end
$var reg 8 (" \mem[8] [7:0] $end
$upscope $end
$upscope $end
$scope module tb_axi_slave $end
$scope module u_axi_slave $end
$var reg 8 )" \mem[9] [7:0] $end
$upscope $end
$upscope $end
$scope module tb_axi_slave $end
$scope module u_axi_slave $end
$var reg 8 *" \mem[10] [7:0] $end
$upscope $end
$upscope $end
$scope module tb_axi_slave $end
$scope module u_axi_slave $end
$var reg 8 +" \mem[11] [7:0] $end
$upscope $end
$upscope $end
$scope module tb_axi_slave $end
$scope module u_axi_slave $end
$var reg 8 ," \mem[12] [7:0] $end
$upscope $end
$upscope $end
$scope module tb_axi_slave $end
$scope module u_axi_slave $end
$var reg 8 -" \mem[13] [7:0] $end
$upscope $end
$upscope $end
$scope module tb_axi_slave $end
$scope module u_axi_slave $end
$var reg 8 ." \mem[14] [7:0] $end
$upscope $end
$upscope $end
$scope module tb_axi_slave $end
$scope module u_axi_slave $end
$var reg 8 /" \mem[15] [7:0] $end
$upscope $end
$upscope $end
$scope module tb_axi_slave $end
$scope module u_axi_slave $end
$var reg 8 0" \mem[16] [7:0] $end
$upscope $end
$upscope $end
$scope module tb_axi_slave $end
$scope module u_axi_slave $end
$var reg 8 1" \mem[17] [7:0] $end
$upscope $end
$upscope $end
$scope module tb_axi_slave $end
$scope module u_axi_slave $end
$var reg 8 2" \mem[18] [7:0] $end
$upscope $end
$upscope $end
$scope module tb_axi_slave $end
$scope module u_axi_slave $end
$var reg 8 3" \mem[19] [7:0] $end
$upscope $end
$upscope $end
$scope module tb_axi_slave $end
$scope module u_axi_slave $end
$var reg 8 4" \mem[20] [7:0] $end
$upscope $end
$upscope $end
$scope module tb_axi_slave $end
$scope module u_axi_slave $end
$var reg 8 5" \mem[21] [7:0] $end
$upscope $end
$upscope $end
$scope module tb_axi_slave $end
$scope module u_axi_slave $end
$var reg 8 6" \mem[22] [7:0] $end
$upscope $end
$upscope $end
$scope module tb_axi_slave $end
$scope module u_axi_slave $end
$var reg 8 7" \mem[23] [7:0] $end
$upscope $end
$upscope $end
$scope module tb_axi_slave $end
$scope module u_axi_slave $end
$var reg 8 8" \mem[24] [7:0] $end
$upscope $end
$upscope $end
$scope module tb_axi_slave $end
$scope module u_axi_slave $end
$var reg 8 9" \mem[25] [7:0] $end
$upscope $end
$upscope $end
$scope module tb_axi_slave $end
$scope module u_axi_slave $end
$var reg 8 :" \mem[26] [7:0] $end
$upscope $end
$upscope $end
$scope module tb_axi_slave $end
$scope module u_axi_slave $end
$var reg 8 ;" \mem[27] [7:0] $end
$upscope $end
$upscope $end
$scope module tb_axi_slave $end
$scope module u_axi_slave $end
$var reg 8 <" \mem[28] [7:0] $end
$upscope $end
$upscope $end
$scope module tb_axi_slave $end
$scope module u_axi_slave $end
$var reg 8 =" \mem[29] [7:0] $end
$upscope $end
$upscope $end
$scope module tb_axi_slave $end
$scope module u_axi_slave $end
$var reg 8 >" \mem[30] [7:0] $end
$upscope $end
$upscope $end
$scope module tb_axi_slave $end
$scope module u_axi_slave $end
$var reg 8 ?" \mem[31] [7:0] $end
$upscope $end
$upscope $end
$enddefinitions $end
#0
$dumpvars
bx ?"
bx >"
bx ="
bx <"
bx ;"
bx :"
bx 9"
bx 8"
bx 7"
bx 6"
bx 5"
bx 4"
bx 3"
bx 2"
bx 1"
bx 0"
bx /"
bx ."
bx -"
bx ,"
bx +"
bx *"
bx )"
bx ("
bx '"
bx &"
bx %"
bx $"
bx #"
bx ""
bx !"
bx ~
bx }
bx |
bx {
bx z
bx y
bx x
bx w
bx v
bx u
bx t
bx s
bx r
bx q
bx p
b0 o
bx n
bx m
bx l
bx k
bx j
bx i
bx h
bx g
xf
bx e
xd
xc
bx b
xa
bx `
x_
bx ^
x]
bx \
bx [
bx Z
b1111 Y
b0xxx X
b0 W
bx V
b0 U
bx T
b10 S
b111 R
bx Q
b1 P
b0 O
b10 N
b111 M
bx L
b1 K
b0 J
b100000 I
0H
bx G
0F
xE
xD
xC
xB
xA
bx @
x?
bx >
x=
x<
bx ;
x:
bx 9
bx 8
x7
x6
b0xxx 5
x4
x3
b1111 2
x1
b0 0
x/
b0 .
x-
x,
b10 +
b111 *
bx )
b1 (
b0 '
x&
b10 %
b111 $
bx #
b1 "
b0 !
$end
#5000
b100 t
b100 [
b100 u
b1 v
b0 q
b10 s
b1 p
b111 r
0/
0C
0-
0B
0&
0?
03
0E
0,
0A
04
0d
1<
1]
0f
0:
0_
1=
b0 b
07
0a
06
0c
01
0D
b0 #
b0 L
b0 >
b0 )
b0 Q
b0 @
b0 5
b0 X
b0 G
1F
#10000
0F
#15000
b100 {
b1 }
b100 Z
b100 |
b0 8
b0 V
b0 `
b10 j
b111 i
b1 h
b111 m
b111 y
b10 n
b10 z
b1 l
b1 w
b0 k
b0 x
b0 e
1F
#20000
0F
1H
#25000
1/
1C
1-
1B
13
1E
1&
1?
1,
1A
b0 ;
b0 T
b0 ^
1F
#30000
0F
#35000
16
1c
b0 g
b111 b
0=
14
1d
0<
0]
b1 )
b1 Q
b1 @
b1 #
b1 L
b1 >
1F
#40000
0F
#45000
b1000 [
b1000 u
b1000 Z
b1000 |
b100 q
b100 k
b100 x
b0 #"
b0 ""
b0 !"
b0 ~
b110 b
b100 g
b1 5
b1 X
b1 G
b100 o
1F
#50000
0F
#55000
b1100 [
b1100 u
b1000 q
b1100 Z
b1100 |
b1000 g
b101 b
b0 '"
b0 &"
b0 %"
b1 $"
bx 9
bx \
b1000 k
b1000 x
b10 5
b10 X
b10 G
b100 o
1F
#60000
0F
#65000
b10000 [
b10000 u
b10000 Z
b10000 |
b1100 q
b1100 k
b1100 x
b0 +"
b0 *"
b0 )"
b10 ("
b100 b
b1100 g
b11 5
b11 X
b11 G
b100 o
1F
#70000
0F
#75000
b10100 [
b10100 u
b10000 q
b10100 Z
b10100 |
b10000 g
b11 b
b0 /"
b0 ."
b0 -"
b11 ,"
bx 9
bx \
b10000 k
b10000 x
b100 5
b100 X
b100 G
b100 o
1F
#80000
0F
#85000
b11000 [
b11000 u
b11000 Z
b11000 |
b10100 q
b10100 k
b10100 x
b0 3"
b0 2"
b0 1"
b100 0"
b10 b
b10100 g
b101 5
b101 X
b101 G
b100 o
1F
#90000
0F
#95000
b11100 [
b11100 u
b11000 q
b11100 Z
b11100 |
b11000 g
b1 b
b0 7"
b0 6"
b0 5"
b101 4"
bx 9
bx \
b11000 k
b11000 x
b110 5
b110 X
b110 G
b100 o
1F
#100000
0F
#105000
b100 [
b100 u
b0 Z
b0 |
b0 q
b11100 k
b11100 x
b0 ;"
b0 :"
b0 9"
b110 8"
1=
b0 b
17
1a
b11100 g
11
1D
b111 5
b111 X
b111 G
b100 o
1F
#110000
0F
#115000
b100 Z
b100 |
01
0D
b1 8
b1 V
b1 `
b0 g
07
0a
b111 b
0=
b0 ?"
b0 >"
b0 ="
b111 <"
b0 9
b0 \
b0 k
b0 x
1:
1_
04
0d
1<
1]
b10 #
b10 L
b10 >
b0 5
b0 X
b0 G
b100 o
1F
#120000
0F
#125000
b1000 [
b1000 u
b100 q
14
1d
0<
0]
0:
0_
b1 e
b110 b
b1 9
b1 \
b100 g
b10 )
b10 Q
b10 @
1F
#130000
0F
#135000
b1100 [
b1100 u
b1000 q
b1000 Z
b1000 |
b10 9
b10 \
b1000 g
b101 b
b0 #"
b0 ""
b0 !"
b0 ~
b100 k
b100 x
b1 ;
b1 T
b1 ^
b1 5
b1 X
b1 G
b100 o
1F
#140000
0F
#145000
b10000 [
b10000 u
b1100 Z
b1100 |
b1100 q
b1000 k
b1000 x
b0 '"
b0 &"
b0 %"
b1 $"
b100 b
b11 9
b11 \
b1100 g
b10 5
b10 X
b10 G
b100 o
1F
#150000
0F
#155000
b10100 [
b10100 u
b10000 q
b10000 Z
b10000 |
b100 9
b100 \
b10000 g
b11 b
b0 +"
b0 *"
b0 )"
b10 ("
b1100 k
b1100 x
b11 5
b11 X
b11 G
b100 o
1F
#160000
0F
#165000
b11000 [
b11000 u
b10100 Z
b10100 |
b10100 q
b10000 k
b10000 x
b0 /"
b0 ."
b0 -"
b11 ,"
b10 b
b101 9
b101 \
b10100 g
b100 5
b100 X
b100 G
b100 o
1F
#170000
0F
#175000
b11100 [
b11100 u
b11000 q
b11000 Z
b11000 |
b110 9
b110 \
b11000 g
b1 b
b0 3"
b0 2"
b0 1"
b100 0"
b10100 k
b10100 x
b101 5
b101 X
b101 G
b100 o
1F
#180000
0F
#185000
b100 [
b100 u
b11100 Z
b11100 |
b0 q
b11000 k
b11000 x
b0 7"
b0 6"
b0 5"
b101 4"
1=
b0 b
17
1a
b111 9
b111 \
b11100 g
b110 5
b110 X
b110 G
b100 o
1F
#190000
0F
#195000
b0 Z
b0 |
11
1D
b10 8
b10 V
b10 `
b0 9
b0 \
b0 g
07
0a
b111 b
0=
b0 ;"
b0 :"
b0 9"
b110 8"
b11100 k
b11100 x
b11 #
b11 L
b11 >
b111 5
b111 X
b111 G
b100 o
1F
#200000
0F
#205000
b1000 [
b1000 u
b100 Z
b100 |
b100 q
04
0d
1<
1]
1:
1_
b0 k
b0 x
b0 ?"
b0 >"
b0 ="
b111 <"
b110 b
b1 9
b1 \
b100 g
01
0D
b0 5
b0 X
b0 G
b100 o
1F
#210000
0F
#215000
b1100 [
b1100 u
b1000 q
b10 9
b10 \
b1000 g
b101 b
b10 e
0:
0_
14
1d
0<
0]
b11 )
b11 Q
b11 @
1F
#220000
0F
#225000
b10000 [
b10000 u
b1000 Z
b1000 |
b1100 q
b10 ;
b10 T
b10 ^
b100 k
b100 x
b0 #"
b0 ""
b0 !"
b0 ~
b100 b
b11 9
b11 \
b1100 g
b1 5
b1 X
b1 G
b100 o
1F
#230000
0F
#235000
b10100 [
b10100 u
b10000 q
b1100 Z
b1100 |
b100 9
b100 \
b10000 g
b11 b
b0 '"
b0 &"
b0 %"
b1 $"
b1000 k
b1000 x
b10 5
b10 X
b10 G
b100 o
1F
#240000
0F
#245000
b11000 [
b11000 u
b10000 Z
b10000 |
b10100 q
b1100 k
b1100 x
b0 +"
b0 *"
b0 )"
b10 ("
b10 b
b101 9
b101 \
b10100 g
b11 5
b11 X
b11 G
b100 o
1F
#250000
0F
#255000
b11100 [
b11100 u
b11000 q
b10100 Z
b10100 |
b110 9
b110 \
b11000 g
b1 b
b0 /"
b0 ."
b0 -"
b11 ,"
b10000 k
b10000 x
b100 5
b100 X
b100 G
b100 o
1F
#260000
0F
#265000
b100 [
b100 u
b11000 Z
b11000 |
b0 q
b10100 k
b10100 x
b0 3"
b0 2"
b0 1"
b100 0"
1=
b0 b
17
1a
b111 9
b111 \
b11100 g
b101 5
b101 X
b101 G
b100 o
1F
#270000
0F
#275000
b11100 Z
b11100 |
b11 8
b11 V
b11 `
b0 9
b0 \
b0 g
07
0a
b111 b
0=
b0 7"
b0 6"
b0 5"
b101 4"
b11000 k
b11000 x
b0 #
b0 L
b0 >
b110 5
b110 X
b110 G
b100 o
1F
#280000
0F
#285000
b1000 [
b1000 u
b0 Z
b0 |
b100 q
b11100 k
b11100 x
b0 ;"
b0 :"
b0 9"
b110 8"
b110 b
b1 9
b1 \
b100 g
11
1D
b111 5
b111 X
b111 G
b100 o
1F
#290000
0F
#295000
b1100 [
b1100 u
b1000 q
b100 Z
b100 |
01
0D
b10 9
b10 \
b1000 g
b101 b
b0 ?"
b0 >"
b0 ="
b111 <"
b0 k
b0 x
1:
1_
04
0d
1<
1]
b0 5
b0 X
b0 G
b100 o
1F
#300000
0F
#305000
b10000 [
b10000 u
b1100 q
14
1d
0<
0]
0:
0_
b11 e
b100 b
b11 9
b11 \
b1100 g
b0 )
b0 Q
b0 @
1F
#310000
0F
#315000
b10100 [
b10100 u
b10000 q
b1000 Z
b1000 |
b100 9
b100 \
b10000 g
b11 b
b0 #"
b0 ""
b0 !"
b0 ~
b100 k
b100 x
b11 ;
b11 T
b11 ^
b1 5
b1 X
b1 G
b100 o
1F
#320000
0F
#325000
b11000 [
b11000 u
b1100 Z
b1100 |
b10100 q
b1000 k
b1000 x
b0 '"
b0 &"
b0 %"
b1 $"
b10 b
b101 9
b101 \
b10100 g
b10 5
b10 X
b10 G
b100 o
1F
#330000
0F
#335000
b11100 [
b11100 u
b11000 q
b10000 Z
b10000 |
b110 9
b110 \
b11000 g
b1 b
b0 +"
b0 *"
b0 )"
b10 ("
b1100 k
b1100 x
b11 5
b11 X
b11 G
b100 o
1F
#340000
0F
#345000
b100 [
b100 u
b10100 Z
b10100 |
b0 q
b10000 k
b10000 x
b0 /"
b0 ."
b0 -"
b11 ,"
1=
b0 b
17
1a
b111 9
b111 \
b11100 g
b100 5
b100 X
b100 G
b100 o
1F
#350000
0F
#355000
b11000 Z
b11000 |
b0 8
b0 V
b0 `
b0 9
b0 \
b0 g
07
0a
b111 b
0=
b0 3"
b0 2"
b0 1"
b100 0"
b10100 k
b10100 x
b1 #
b1 L
b1 >
b101 5
b101 X
b101 G
b100 o
1F
#360000
0F
#365000
b1000 [
b1000 u
b11100 Z
b11100 |
b100 q
b11000 k
b11000 x
b0 7"
b0 6"
b0 5"
b101 4"
b110 b
b1 9
b1 \
b100 g
b110 5
b110 X
b110 G
b100 o
1F
#370000
0F
#375000
b1100 [
b1100 u
b1000 q
b0 Z
b0 |
11
1D
b10 9
b10 \
b1000 g
b101 b
b0 ;"
b0 :"
b0 9"
b110 8"
b11100 k
b11100 x
b111 5
b111 X
b111 G
b100 o
1F
#380000
0F
#385000
b10000 [
b10000 u
b100 Z
b100 |
b1100 q
04
0d
1<
1]
1:
1_
b0 k
b0 x
b0 ?"
b0 >"
b0 ="
b111 <"
b100 b
b11 9
b11 \
b1100 g
01
0D
b0 5
b0 X
b0 G
b100 o
1F
#390000
0F
#395000
b10100 [
b10100 u
b10000 q
b100 9
b100 \
b10000 g
b11 b
b0 e
0:
0_
14
1d
0<
0]
b1 )
b1 Q
b1 @
1F
#400000
0F
#405000
b11000 [
b11000 u
b1000 Z
b1000 |
b10100 q
b0 ;
b0 T
b0 ^
b100 k
b100 x
b0 #"
b0 ""
b0 !"
b0 ~
b10 b
b101 9
b101 \
b10100 g
b1 5
b1 X
b1 G
b100 o
1F
#410000
0F
#415000
b11100 [
b11100 u
b11000 q
b1100 Z
b1100 |
b110 9
b110 \
b11000 g
b1 b
b0 '"
b0 &"
b0 %"
b1 $"
b1000 k
b1000 x
b10 5
b10 X
b10 G
b100 o
1F
#420000
0F
#425000
b100 [
b100 u
b10000 Z
b10000 |
b0 q
b1100 k
b1100 x
b0 +"
b0 *"
b0 )"
b10 ("
1=
b0 b
17
1a
b111 9
b111 \
b11100 g
b11 5
b11 X
b11 G
b100 o
1F
#430000
0F
#435000
b10100 Z
b10100 |
b1 8
b1 V
b1 `
b0 9
b0 \
b0 g
07
0a
b111 b
0=
b0 /"
b0 ."
b0 -"
b11 ,"
b10000 k
b10000 x
b10 #
b10 L
b10 >
b100 5
b100 X
b100 G
b100 o
1F
#440000
0F
#445000
b1000 [
b1000 u
b11000 Z
b11000 |
b100 q
b10100 k
b10100 x
b0 3"
b0 2"
b0 1"
b100 0"
b110 b
b1 9
b1 \
b100 g
b101 5
b101 X
b101 G
b100 o
1F
#450000
0F
#455000
b1100 [
b1100 u
b1000 q
b11100 Z
b11100 |
b10 9
b10 \
b1000 g
b101 b
b0 7"
b0 6"
b0 5"
b101 4"
b11000 k
b11000 x
b110 5
b110 X
b110 G
b100 o
1F
#460000
0F
#465000
b10000 [
b10000 u
b0 Z
b0 |
b1100 q
b11100 k
b11100 x
b0 ;"
b0 :"
b0 9"
b110 8"
b100 b
b11 9
b11 \
b1100 g
11
1D
b111 5
b111 X
b111 G
b100 o
1F
#470000
0F
#475000
b10100 [
b10100 u
b10000 q
b100 Z
b100 |
01
0D
b100 9
b100 \
b10000 g
b11 b
b0 ?"
b0 >"
b0 ="
b111 <"
b0 k
b0 x
1:
1_
04
0d
1<
1]
b0 5
b0 X
b0 G
b100 o
1F
#480000
0F
#485000
b11000 [
b11000 u
b10100 q
14
1d
0<
0]
0:
0_
b1 e
b10 b
b101 9
b101 \
b10100 g
b10 )
b10 Q
b10 @
1F
#490000
0F
#495000
b11100 [
b11100 u
b11000 q
b1000 Z
b1000 |
b110 9
b110 \
b11000 g
b1 b
b0 #"
b0 ""
b0 !"
b0 ~
b100 k
b100 x
b1 ;
b1 T
b1 ^
b1 5
b1 X
b1 G
b100 o
1F
#500000
0F
#505000
b100 [
b100 u
b1100 Z
b1100 |
b0 q
b1000 k
b1000 x
b0 '"
b0 &"
b0 %"
b1 $"
1=
b0 b
17
1a
b111 9
b111 \
b11100 g
b10 5
b10 X
b10 G
b100 o
1F
#510000
0F
#515000
b10000 Z
b10000 |
b10 8
b10 V
b10 `
b0 9
b0 \
b0 g
07
0a
b111 b
0=
b0 +"
b0 *"
b0 )"
b10 ("
b1100 k
b1100 x
b11 #
b11 L
b11 >
b11 5
b11 X
b11 G
b100 o
1F
#520000
0F
#525000
b1000 [
b1000 u
b10100 Z
b10100 |
b100 q
b10000 k
b10000 x
b0 /"
b0 ."
b0 -"
b11 ,"
b110 b
b1 9
b1 \
b100 g
b100 5
b100 X
b100 G
b100 o
1F
#530000
0F
#535000
b1100 [
b1100 u
b1000 q
b11000 Z
b11000 |
b10 9
b10 \
b1000 g
b101 b
b0 3"
b0 2"
b0 1"
b100 0"
b10100 k
b10100 x
b101 5
b101 X
b101 G
b100 o
1F
#540000
0F
#545000
b10000 [
b10000 u
b11100 Z
b11100 |
b1100 q
b11000 k
b11000 x
b0 7"
b0 6"
b0 5"
b101 4"
b100 b
b11 9
b11 \
b1100 g
b110 5
b110 X
b110 G
b100 o
1F
#550000
0F
#555000
b10100 [
b10100 u
b10000 q
b0 Z
b0 |
11
1D
b100 9
b100 \
b10000 g
b11 b
b0 ;"
b0 :"
b0 9"
b110 8"
b11100 k
b11100 x
b111 5
b111 X
b111 G
b100 o
1F
#560000
0F
#565000
b11000 [
b11000 u
b100 Z
b100 |
b10100 q
04
0d
1<
1]
1:
1_
b0 k
b0 x
b0 ?"
b0 >"
b0 ="
b111 <"
b10 b
b101 9
b101 \
b10100 g
01
0D
b0 5
b0 X
b0 G
b100 o
1F
#570000
0F
#575000
b11100 [
b11100 u
b11000 q
b110 9
b110 \
b11000 g
b1 b
b10 e
0:
0_
14
1d
0<
0]
b11 )
b11 Q
b11 @
1F
#580000
0F
#585000
b100 [
b100 u
b1000 Z
b1000 |
b0 q
b10 ;
b10 T
b10 ^
b100 k
b100 x
b0 #"
b0 ""
b0 !"
b0 ~
1=
b0 b
17
1a
b111 9
b111 \
b11100 g
b1 5
b1 X
b1 G
b100 o
1F
#590000
0F
#595000
b1100 Z
b1100 |
b11 8
b11 V
b11 `
b0 9
b0 \
b0 g
07
0a
b111 b
0=
b0 '"
b0 &"
b0 %"
b1 $"
b1000 k
b1000 x
b0 #
b0 L
b0 >
b10 5
b10 X
b10 G
b100 o
1F
#600000
0F
#605000
b1000 [
b1000 u
b10000 Z
b10000 |
b100 q
b1100 k
b1100 x
b0 +"
b0 *"
b0 )"
b10 ("
b110 b
b1 9
b1 \
b100 g
b11 5
b11 X
b11 G
b100 o
1F
#610000
0F
#615000
b1100 [
b1100 u
b1000 q
b10100 Z
b10100 |
b10 9
b10 \
b1000 g
b101 b
b0 /"
b0 ."
b0 -"
b11 ,"
b10000 k
b10000 x
b100 5
b100 X
b100 G
b100 o
1F
#620000
0F
#625000
b10000 [
b10000 u
b11000 Z
b11000 |
b1100 q
b10100 k
b10100 x
b0 3"
b0 2"
b0 1"
b100 0"
b100 b
b11 9
b11 \
b1100 g
b101 5
b101 X
b101 G
b100 o
1F
#630000
0F
#635000
b10100 [
b10100 u
b10000 q
b11100 Z
b11100 |
b100 9
b100 \
b10000 g
b11 b
b0 7"
b0 6"
b0 5"
b101 4"
b11000 k
b11000 x
b110 5
b110 X
b110 G
b100 o
1F
#640000
0F
#645000
b11000 [
b11000 u
b0 Z
b0 |
b10100 q
b11100 k
b11100 x
b0 ;"
b0 :"
b0 9"
b110 8"
b10 b
b101 9
b101 \
b10100 g
11
1D
b111 5
b111 X
b111 G
b100 o
1F
#650000
0F
#655000
b11100 [
b11100 u
b11000 q
b100 Z
b100 |
01
0D
b110 9
b110 \
b11000 g
b1 b
b0 ?"
b0 >"
b0 ="
b111 <"
b0 k
b0 x
1:
1_
04
0d
1<
1]
b0 5
b0 X
b0 G
b100 o
1F
#660000
0F
#665000
b100 [
b100 u
b0 q
14
1d
0<
0]
0:
0_
b11 e
1=
b0 b
17
1a
b111 9
b111 \
b11100 g
b0 )
b0 Q
b0 @
1F
#670000
0F
#675000
b1000 Z
b1000 |
b0 8
b0 V
b0 `
b0 9
b0 \
b0 g
07
0a
b111 b
0=
b0 #"
b0 ""
b0 !"
b0 ~
b100 k
b100 x
b11 ;
b11 T
b11 ^
b1 #
b1 L
b1 >
b1 5
b1 X
b1 G
b100 o
1F
#680000
0F
#685000
b1000 [
b1000 u
b1100 Z
b1100 |
b100 q
b1000 k
b1000 x
b0 '"
b0 &"
b0 %"
b1 $"
b110 b
b1 9
b1 \
b100 g
b10 5
b10 X
b10 G
b100 o
1F
#690000
0F
#695000
b1100 [
b1100 u
b1000 q
b10000 Z
b10000 |
b10 9
b10 \
b1000 g
b101 b
b0 +"
b0 *"
b0 )"
b10 ("
b1100 k
b1100 x
b11 5
b11 X
b11 G
b100 o
1F
#700000
0F
#705000
b10000 [
b10000 u
b10100 Z
b10100 |
b1100 q
b10000 k
b10000 x
b0 /"
b0 ."
b0 -"
b11 ,"
b100 b
b11 9
b11 \
b1100 g
b100 5
b100 X
b100 G
b100 o
1F
#710000
0F
#715000
b10100 [
b10100 u
b10000 q
b11000 Z
b11000 |
b100 9
b100 \
b10000 g
b11 b
b0 3"
b0 2"
b0 1"
b100 0"
b10100 k
b10100 x
b101 5
b101 X
b101 G
b100 o
1F
#720000
0F
#725000
b11000 [
b11000 u
b11100 Z
b11100 |
b10100 q
b11000 k
b11000 x
b0 7"
b0 6"
b0 5"
b101 4"
b10 b
b101 9
b101 \
b10100 g
b110 5
b110 X
b110 G
b100 o
1F
#730000
0F
#735000
b11100 [
b11100 u
b11000 q
b0 Z
b0 |
11
1D
b110 9
b110 \
b11000 g
b1 b
b0 ;"
b0 :"
b0 9"
b110 8"
b11100 k
b11100 x
b111 5
b111 X
b111 G
b100 o
1F
#740000
0F
#745000
b100 [
b100 u
b100 Z
b100 |
b0 q
04
0d
1<
1]
1:
1_
b0 k
b0 x
b0 ?"
b0 >"
b0 ="
b111 <"
1=
b0 b
17
1a
b111 9
b111 \
b11100 g
01
0D
b0 5
b0 X
b0 G
b100 o
1F
#750000
0F
#755000
b1 8
b1 V
b1 `
b0 9
b0 \
b0 g
07
0a
b111 b
0=
b0 e
0:
0_
14
1d
0<
0]
b1 )
b1 Q
b1 @
b10 #
b10 L
b10 >
1F
#760000
0F
#765000
b1000 [
b1000 u
b1000 Z
b1000 |
b100 q
b0 ;
b0 T
b0 ^
b100 k
b100 x
b0 #"
b0 ""
b0 !"
b0 ~
b110 b
b1 9
b1 \
b100 g
b1 5
b1 X
b1 G
b100 o
1F
#770000
0F
