AR/sim/test.vcd
$date
	Thu Nov 17 20:37:53 2022
$end
$version
	Icarus Verilog
$end
$timescale
	1s
$end
$scope module round_robin_arbiter_base_tb $end
$var wire 8 ! grants [7:0] $end
$var reg 1 " clk $end
$var reg 8 # reqs [7:0] $end
$var reg 1 $ rst_n $end
$scope module u_round_robin_arbiter_base $end
$var wire 1 " clk $end
$var wire 8 % masked_grants [7:0] $end
$var wire 8 & masked_reqs [7:0] $end
$var wire 8 ' reqs [7:0] $end
$var wire 1 $ rst_n $end
$var wire 8 ( unmasked_grants [7:0] $end
$var wire 1 ) has_masked_reqs $end
$var wire 8 * grants [7:0] $end
$var reg 8 + mask [7:0] $end
$upscope $end
$upscope $end
$enddefinitions $end
#0
$dumpvars
b11111111 +
bx *
x)
bx (
bx '
bx &
bx %
0$
bx #
0"
bx !
$end
#5
b0 %
b0 !
b0 *
0)
b0 &
b0 (
b0 #
b0 '
1"
#10
0"
#12
1$
#15
b1 !
b1 *
b1 %
1)
b11111111 &
b1 (
b11111111 #
b11111111 '
1"
#20
0"
#25
b10 !
b10 *
b10 %
b11111110 &
b11111110 +
1"
#30
0"
#35
b100 !
b100 *
b100 %
b11111100 &
b11111100 +
1"
#40
0"
#45
b1000 !
b1000 *
b1000 %
b11111000 &
b11111000 +
1"
#50
0"
#55
b10000 !
b10000 *
b10000 %
b11110000 &
b11110000 +
1"
#60
0"
#65
b100000 !
b100000 *
b100000 %
b11100000 &
b11100000 +
1"
#70
0"
#75
b1000000 !
b1000000 *
b1000000 %
b11000000 &
b11000000 +
1"
#80
0"
#85
b10000000 !
b10000000 *
b10000000 %
b10000000 &
b10000000 +
1"
#90
0"
#95
b0 %
b1 !
b1 *
0)
b0 &
b0 +
1"
#100
0"
#105
b1 %
b1 !
b1 *
1)
b11111111 &
b11111111 +
1"
#110
0"
#115
b10 !
b10 *
b10 %
b11111110 &
b11111110 +
1"
#120
0"
#125
b100 !
b100 *
b100 %
b11111100 &
b11111100 +
1"
#130
0"
#135
b1000 !
b1000 *
b1000 %
b11111000 &
b11111000 +
1"
#140
0"
#145
b10000 !
b10000 *
b10000 %
b11110000 &
b11110000 +
1"
#150
0"
#155
b100000 !
b100000 *
b100000 %
b11100000 &
b11100000 +
1"
#160
0"
#165
b1000000 !
b1000000 *
b1000000 %
b11000000 &
b11000000 +
1"
#170
0"
#175
b10000000 !
b10000000 *
b10000000 %
b10000000 &
b10000000 +
1"
#180
0"
#185
b0 %
b1 !
b1 *
0)
b0 &
b0 +
1"
#190
0"
#195
b1 %
b1 !
b1 *
1)
b11111111 &
b11111111 +
1"
#200
0"
#205
b10 !
b10 *
b10 %
b11111110 &
b11111110 +
1"
#210
0"
#215
b100 !
b100 *
b100 %
b11111100 &
b11111100 +
1"
#220
0"
#225
b1000 !
b1000 *
b1000 %
b11111000 &
b11111000 +
1"
#230
0"
#235
b10000 !
b10000 *
b10000 %
b11110000 &
b11110000 +
1"
#240
0"
#245
b100000 !
b100000 *
b100000 %
b11100000 &
b11100000 +
1"
#250
0"
#255
b1000000 !
b1000000 *
b1000000 %
b11000000 &
b11000000 +
1"
#260
0"
#265
b10000000 !
b10000000 *
b10000000 %
b10000000 &
b10000000 +
1"
#270
0"
#275
b0 %
b1 !
b1 *
0)
b0 &
b0 +
1"
#280
0"
#285
b1 %
b1 !
b1 *
1)
b11111111 &
b11111111 +
1"
#290
0"
#295
b10 !
b10 *
b10 %
b11111110 &
b11111110 +
1"
#300
0"
#305
b100 !
b100 *
b100 %
b11111100 &
b11111100 +
1"
#310
0"
#315
b1000 !
b1000 *
b1000 %
b11111000 &
b11111000 +
1"
#320
0"
#325
b10000 !
b10000 *
b10000 %
b11110000 &
b11110000 +
1"
#330
0"
#335
b100000 !
b100000 *
b100000 %
b11100000 &
b11100000 +
1"
#340
0"
#345
b1000000 !
b1000000 *
b1000000 %
b11000000 &
b11000000 +
1"
#350
0"
#355
b10000000 !
b10000000 *
b10000000 %
b10000000 &
b10000000 +
1"
#360
0"
#365
b0 %
b1 !
b1 *
0)
b0 &
b0 +
1"
#370
0"
#375
b1 %
b1 !
b1 *
1)
b11111111 &
b11111111 +
1"
#380
0"
#385
b10 !
b10 *
b10 %
b11111110 &
b11111110 +
1"
#390
0"
#395
b100 !
b100 *
b100 %
b11111100 &
b11111100 +
1"
#400
0"
#405
b1000 !
b1000 *
b1000 %
b11111000 &
b11111000 +
1"
#410
0"
#415
b10000 !
b10000 *
b10000 %
b11110000 &
b11110000 +
1"
#420
0"
#425
b100000 !
b100000 *
b100000 %
b11100000 &
b11100000 +
1"
#430
0"
#435
b1000000 !
b1000000 *
b1000000 %
b11000000 &
b11000000 +
1"
#440
0"
#445
b10000000 !
b10000000 *
b10000000 %
b10000000 &
b10000000 +
1"
#450
0"
#455
b0 %
b1 !
b1 *
0)
b0 &
b0 +
1"
#460
0"
#465
b1 %
b1 !
b1 *
1)
b11111111 &
b11111111 +
1"
#470
0"
#475
b10 !
b10 *
b10 %
b11111110 &
b11111110 +
1"
#480
0"
#485
b100 !
b100 *
b100 %
b11111100 &
b11111100 +
1"
#490
0"
#495
b1000 !
b1000 *
b1000 %
b11111000 &
b11111000 +
1"
#500
0"
#505
b10000 !
b10000 *
b10000 %
b11110000 &
b11110000 +
1"
