AMBA/AXI/AXI-lite/sim/test.vcd
$date
	Mon Feb 20 21:19:11 2023
$end
$version
	Icarus Verilog
$end
$timescale
	1ps
$end
$scope module tb_axil_top $end
$var wire 1 ! tfire $end
$var wire 1 " tready $end
$var wire 16 # tdata [15:0] $end
$var wire 1 $ mode $end
$var reg 1 % clk $end
$var reg 9 & cnt [8:0] $end
$var reg 8 ' data [7:0] $end
$var reg 1 ( rstn $end
$var reg 2 ) tkeep [1:0] $end
$var reg 1 * tvalid $end
$scope begin genblk1 $end
$upscope $end
$scope module u_axil_top $end
$var wire 2 + bresp [1:0] $end
$var wire 1 % clk $end
$var wire 2 , rresp [1:0] $end
$var wire 1 ( rstn $end
$var wire 16 - tdata [15:0] $end
$var wire 2 . tkeep [1:0] $end
$var wire 1 * tvalid $end
$var wire 1 / wvalid $end
$var wire 1 0 wready $end
$var wire 8 1 wdata [7:0] $end
$var wire 1 " tready $end
$var wire 1 2 rvalid $end
$var wire 1 3 rready $end
$var wire 8 4 rdata [7:0] $end
$var wire 1 5 bvalid $end
$var wire 1 6 bready $end
$var wire 1 7 awvalid $end
$var wire 1 8 awready $end
$var wire 8 9 awaddr [7:0] $end
$var wire 1 : arvalid $end
$var wire 1 ; arready $end
$var wire 8 < araddr [7:0] $end
$scope module u_axi_lite_master $end
$var wire 2 = bresp [1:0] $end
$var wire 1 % clk $end
$var wire 2 > rresp [1:0] $end
$var wire 1 ( rstn $end
$var wire 16 ? tdata [15:0] $end
$var wire 2 @ tkeep [1:0] $end
$var wire 1 * tvalid $end
$var wire 1 / wvalid $end
$var wire 1 0 wready $end
$var wire 1 A wr_flag $end
$var wire 8 B wdata [7:0] $end
$var wire 1 C tvalid_w $end
$var wire 1 D tvalid_r $end
$var wire 1 E tready_w $end
$var wire 1 F tready_r $end
$var wire 1 " tready $end
$var wire 8 G tdata_w [7:0] $end
$var wire 8 H taddr_w [7:0] $end
$var wire 8 I taddr_r [7:0] $end
$var wire 1 2 rvalid $end
$var wire 1 3 rready $end
$var wire 8 J rdata [7:0] $end
$var wire 1 5 bvalid $end
$var wire 1 6 bready $end
$var wire 1 7 awvalid $end
$var wire 1 8 awready $end
$var wire 8 K awaddr [7:0] $end
$var wire 1 : arvalid $end
$var wire 1 ; arready $end
$var wire 8 L araddr [7:0] $end
$scope module u_axi_lite_read_master $end
$var wire 8 M araddr [7:0] $end
$var wire 1 N arfire $end
$var wire 1 % clk $end
$var wire 1 O has_pending $end
$var wire 1 P rfire $end
$var wire 2 Q rresp [1:0] $end
$var wire 1 ( rstn $end
$var wire 8 R taddr [7:0] $end
$var wire 1 S tfire $end
$var wire 1 D tvalid $end
$var wire 1 F tready $end
$var wire 1 2 rvalid $end
$var wire 1 3 rready $end
$var wire 8 T rdata [7:0] $end
$var wire 1 : arvalid $end
$var wire 1 ; arready $end
$var reg 8 U araddr_r [7:0] $end
$var reg 1 : arvalid_r $end
$var reg 1 3 rready_r $end
$var reg 1 V t_valid_r $end
$upscope $end
$scope module u_axi_lite_write_master $end
$var wire 8 W awaddr [7:0] $end
$var wire 1 X awfire $end
$var wire 1 Y bfire $end
$var wire 2 Z bresp [1:0] $end
$var wire 1 % clk $end
$var wire 1 [ has_pending $end
$var wire 1 ( rstn $end
$var wire 8 \ taddr [7:0] $end
$var wire 8 ] tdata [7:0] $end
$var wire 1 ^ tfire $end
$var wire 1 C tvalid $end
$var wire 8 _ wdata [7:0] $end
$var wire 1 ` wfire $end
$var wire 1 / wvalid $end
$var wire 1 0 wready $end
$var wire 1 E tready $end
$var wire 1 5 bvalid $end
$var wire 1 6 bready $end
$var wire 1 7 awvalid $end
$var wire 1 8 awready $end
$var reg 1 a aw_valid_r $end
$var reg 8 b awaddr_r [7:0] $end
$var reg 1 7 awvalid_r $end
$var reg 1 6 bready_r $end
$var reg 1 c t_valid_r $end
$var reg 1 d w_valid_r $end
$var reg 8 e wdata_r [7:0] $end
$var reg 1 / wvalid_r $end
$upscope $end
$upscope $end
$scope module u_axi_lite_slave $end
$var wire 8 f araddr [7:0] $end
$var wire 1 g arfire $end
$var wire 1 : arvalid $end
$var wire 8 h awaddr [7:0] $end
$var wire 1 i awfire $end
$var wire 1 7 awvalid $end
$var wire 1 j bfire $end
$var wire 1 6 bready $end
$var wire 2 k bresp [1:0] $end
$var wire 1 % clk $end
$var wire 8 l rdata [7:0] $end
$var wire 1 m rfire $end
$var wire 1 3 rready $end
$var wire 2 n rresp [1:0] $end
$var wire 1 o rresp_pending $end
$var wire 1 ( rstn $end
$var wire 8 p wdata [7:0] $end
$var wire 1 q wfire $end
$var wire 1 r wresp_pending $end
$var wire 1 / wvalid $end
$var wire 1 0 wready $end
$var wire 1 2 rvalid $end
$var wire 1 5 bvalid $end
$var wire 1 8 awready $end
$var wire 1 ; arready $end
$var reg 8 s araddr_r [7:0] $end
$var reg 1 t aw_valid_r $end
$var reg 8 u awaddr_r [7:0] $end
$var reg 1 5 bvalid_r $end
$var reg 8 v rdata_r [7:0] $end
$var reg 1 2 rvalid_r $end
$var reg 1 w w_valid_r $end
$var reg 8 x wdata_r [7:0] $end
$upscope $end
$upscope $end
$upscope $end
$enddefinitions $end
#0
$dumpvars
b0 x
0w
b0 v
b0 u
0t
b0 s
0r
0q
b0 p
0o
b0 n
0m
b0 l
b0 k
0j
0i
b0 h
0g
b0 f
b0 e
xd
0c
b0 b
0a
0`
b0 _
0^
b0 ]
b0 \
0[
b0 Z
0Y
0X
b0 W
0V
b0 U
b0 T
0S
b0 R
b0 Q
0P
0O
0N
b0 M
b0 L
b0 K
b0 J
b0 I
b0 H
b0 G
1F
1E
0D
0C
b0 B
xA
bx @
b0 ?
b0 >
b0 =
b0 <
1;
0:
b0 9
18
07
06
05
b0 4
03
02
b0 1
10
0/
bx .
b0 -
b0 ,
b0 +
0*
bx )
0(
b0 '
b0 &
0%
0$
b0 #
1"
0!
$end
#5000
1%
#10000
0%
#15000
1%
#20000
0%
1(
#25000
1A
b11 )
b11 .
b11 @
1%
#30000
0%
#35000
1^
1C
1!
1*
1%
#40000
0%
#45000
0!
0^
0"
b1 I
b1 R
b1 H
b1 \
0E
1q
1`
1i
1X
b1 G
b1 ]
1c
1/
17
b100000001 #
b100000001 -
b100000001 ?
b1 '
b1 &
1%
#50000
0%
#55000
1!
1^
1"
1E
0q
0`
0i
0X
1j
1Y
16
0c
0d
0/
0a
07
15
1%
#60000
0%
#65000
0!
0^
0"
b10 I
b10 R
b10 H
b10 \
0j
0Y
0E
1q
1`
1i
1X
b10 G
b10 ]
05
06
1c
1/
b1 1
b1 B
b1 _
b1 p
b1 e
17
b1 9
b1 K
b1 W
b1 h
b1 b
b1000000010 #
b1000000010 -
b1000000010 ?
b10 '
b10 &
1%
#70000
0%
#75000
1!
1^
1"
1E
0q
0`
0i
0X
1j
1Y
16
0c
0d
0/
0a
07
b1 u
b1 x
15
1%
#80000
0%
#85000
0!
0^
0"
b11 I
b11 R
b11 H
b11 \
0j
0Y
0E
1q
1`
1i
1X
b11 G
b11 ]
05
06
1c
1/
b10 1
b10 B
b10 _
b10 p
b10 e
17
b10 9
b10 K
b10 W
b10 h
b10 b
b1100000011 #
b1100000011 -
b1100000011 ?
b11 '
b11 &
1%
#90000
0%
#95000
1!
1^
1"
1E
0q
0`
0i
0X
1j
1Y
16
0c
0d
0/
0a
07
b10 u
b10 x
15
1%
#100000
0%
#105000
0!
0^
0"
b100 I
b100 R
b100 H
b100 \
0j
0Y
0E
1q
1`
1i
1X
b100 G
b100 ]
05
06
1c
1/
b11 1
b11 B
b11 _
b11 p
b11 e
17
b11 9
b11 K
b11 W
b11 h
b11 b
b10000000100 #
b10000000100 -
b10000000100 ?
b100 '
b100 &
1%
#110000
0%
#115000
1!
1^
1"
1E
0q
0`
0i
0X
1j
1Y
16
0c
0d
0/
0a
07
b11 u
b11 x
15
1%
#120000
0%
#125000
0!
0^
0"
b101 I
b101 R
b101 H
b101 \
0j
0Y
0E
1q
1`
1i
1X
b101 G
b101 ]
05
06
1c
1/
b100 1
b100 B
b100 _
b100 p
b100 e
17
b100 9
b100 K
b100 W
b100 h
b100 b
b10100000101 #
b10100000101 -
b10100000101 ?
b101 '
b101 &
1%
#130000
0%
#135000
1!
1^
1"
1E
0q
0`
0i
0X
1j
1Y
16
0c
0d
0/
0a
07
b100 u
b100 x
15
1%
#140000
0%
#145000
0^
0"
0C
b110 I
b110 R
b110 H
b110 \
0j
0Y
0E
1q
1`
1i
1X
0!
b110 G
b110 ]
05
06
1c
1/
b101 1
b101 B
b101 _
b101 p
b101 e
17
b101 9
b101 K
b101 W
b101 h
b101 b
0*
b11000000110 #
b11000000110 -
b11000000110 ?
b110 '
b110 &
1%
#150000
0%
#155000
1^
1!
1C
1"
1E
0q
0`
0i
0X
1j
1Y
1*
16
0c
0d
0/
0a
07
b101 u
b101 x
15
1%
#160000
0%
#165000
0!
0^
0"
b111 I
b111 R
b111 H
b111 \
0j
0Y
0E
1q
1`
1i
1X
b111 G
b111 ]
05
06
1c
1/
b110 1
b110 B
b110 _
b110 p
b110 e
17
b110 9
b110 K
b110 W
b110 h
b110 b
b11100000111 #
b11100000111 -
b11100000111 ?
b111 '
b111 &
1%
#170000
0%
#175000
1!
1^
1"
1E
0q
0`
0i
0X
1j
1Y
16
0c
0d
0/
0a
07
b110 u
b110 x
15
1%
#180000
0%
#185000
0^
0"
0C
b1000 I
b1000 R
b1000 H
b1000 \
0j
0Y
0E
1q
1`
1i
1X
0!
b1000 G
b1000 ]
05
06
1c
1/
b111 1
b111 B
b111 _
b111 p
b111 e
17
b111 9
b111 K
b111 W
b111 h
b111 b
0*
b100000001000 #
b100000001000 -
b100000001000 ?
b1000 '
b1000 &
1%
#190000
0%
#195000
1^
1!
1C
1"
1E
0q
0`
0i
0X
1j
1Y
1*
16
0c
0d
0/
0a
07
b111 u
b111 x
15
1%
#200000
0%
#205000
0!
0^
0"
b1001 I
b1001 R
b1001 H
b1001 \
0j
0Y
0E
1q
1`
1i
1X
b1001 G
b1001 ]
05
06
1c
1/
b1000 1
b1000 B
b1000 _
b1000 p
b1000 e
17
b1000 9
b1000 K
b1000 W
b1000 h
b1000 b
b100100001001 #
b100100001001 -
b100100001001 ?
b1001 '
b1001 &
1%
#210000
0%
#215000
1!
1^
1"
1E
0q
0`
0i
0X
1j
1Y
16
0c
0d
0/
0a
07
b1000 u
b1000 x
15
1%
#220000
0%
#225000
0^
0"
0C
b1010 I
b1010 R
b1010 H
b1010 \
0j
0Y
0E
1q
1`
1i
1X
0!
b1010 G
b1010 ]
05
06
1c
1/
b1001 1
b1001 B
b1001 _
b1001 p
b1001 e
17
b1001 9
b1001 K
b1001 W
b1001 h
b1001 b
0*
b101000001010 #
b101000001010 -
b101000001010 ?
b1010 '
b1010 &
1%
#230000
0%
#235000
1^
1!
1C
1"
1E
0q
0`
0i
0X
1j
1Y
1*
16
0c
0d
0/
0a
07
b1001 u
b1001 x
15
1%
#240000
0%
#245000
0^
0"
0C
b1011 I
b1011 R
b1011 H
b1011 \
0j
0Y
0E
1q
1`
1i
1X
0!
b1011 G
b1011 ]
05
06
1c
1/
b1010 1
b1010 B
b1010 _
b1010 p
b1010 e
17
b1010 9
b1010 K
b1010 W
b1010 h
b1010 b
0*
b101100001011 #
b101100001011 -
b101100001011 ?
b1011 '
b1011 &
1%
#250000
0%
#255000
1^
1!
1C
1"
1E
0q
0`
0i
0X
1j
1Y
1*
16
0c
0d
0/
0a
07
b1010 u
b1010 x
15
1%
#260000
0%
#265000
0^
0"
0C
b1100 I
b1100 R
b1100 H
b1100 \
0j
0Y
0E
1q
1`
1i
1X
0!
b1100 G
b1100 ]
05
06
1c
1/
b1011 1
b1011 B
b1011 _
b1011 p
b1011 e
17
b1011 9
b1011 K
b1011 W
b1011 h
b1011 b
0*
b110000001100 #
b110000001100 -
b110000001100 ?
b1100 '
b1100 &
1%
#270000
0%
#275000
1^
1!
1C
1"
1E
0q
0`
0i
0X
1j
1Y
1*
16
0c
0d
0/
0a
07
b1011 u
b1011 x
15
1%
#280000
0%
#285000
0!
0^
0"
b1101 I
b1101 R
b1101 H
b1101 \
0j
0Y
0E
1q
1`
1i
1X
b1101 G
b1101 ]
05
06
1c
1/
b1100 1
b1100 B
b1100 _
b1100 p
b1100 e
17
b1100 9
b1100 K
b1100 W
b1100 h
b1100 b
b110100001101 #
b110100001101 -
b110100001101 ?
b1101 '
b1101 &
1%
#290000
0%
#295000
1!
1^
1"
1E
0q
0`
0i
0X
1j
1Y
16
0c
0d
0/
0a
07
b1100 u
b1100 x
15
1%
#300000
0%
#305000
0^
0"
0C
b1110 I
b1110 R
b1110 H
b1110 \
0j
0Y
0E
1q
1`
1i
1X
0!
b1110 G
b1110 ]
05
06
1c
1/
b1101 1
b1101 B
b1101 _
b1101 p
b1101 e
17
b1101 9
b1101 K
b1101 W
b1101 h
b1101 b
0*
b111000001110 #
b111000001110 -
b111000001110 ?
b1110 '
b1110 &
1%
#310000
0%
#315000
1^
1!
1C
1"
1E
0q
0`
0i
0X
1j
1Y
1*
16
0c
0d
0/
0a
07
b1101 u
b1101 x
15
1%
#320000
0%
#325000
0^
0"
0C
b1111 I
b1111 R
b1111 H
b1111 \
0j
0Y
0E
1q
1`
1i
1X
0!
b1111 G
b1111 ]
05
06
1c
1/
b1110 1
b1110 B
b1110 _
b1110 p
b1110 e
17
b1110 9
b1110 K
b1110 W
b1110 h
b1110 b
0*
b111100001111 #
b111100001111 -
b111100001111 ?
b1111 '
b1111 &
1%
#330000
0%
#335000
1"
1E
0q
0`
0i
0X
1j
1Y
16
0c
0d
0/
0a
07
b1110 u
b1110 x
15
1%
#340000
0%
#345000
0j
0Y
05
06
1%
#350000
0%
#355000
1^
1C
1!
1*
1%
#360000
0%
#365000
0^
0"
0C
b10000 I
b10000 R
b10000 H
b10000 \
0E
1q
1`
1i
1X
0!
b10000 G
b10000 ]
1c
1/
b1111 1
b1111 B
b1111 _
b1111 p
b1111 e
17
b1111 9
b1111 K
b1111 W
b1111 h
b1111 b
0*
b1000000010000 #
b1000000010000 -
b1000000010000 ?
b10000 '
b10000 &
1%
#370000
0%
#375000
1^
1!
1C
1"
1E
0q
0`
0i
0X
1j
1Y
1*
16
0c
0d
0/
0a
07
b1111 u
b1111 x
15
1%
#380000
0%
#385000
0!
0^
0"
b10001 I
b10001 R
b10001 H
b10001 \
0j
0Y
0E
1q
1`
1i
1X
b10001 G
b10001 ]
05
06
1c
1/
b10000 1
b10000 B
b10000 _
b10000 p
b10000 e
17
b10000 9
b10000 K
b10000 W
b10000 h
b10000 b
b1000100010001 #
b1000100010001 -
b1000100010001 ?
b10001 '
b10001 &
1%
#390000
0%
#395000
1!
1^
1"
1E
0q
0`
0i
0X
1j
1Y
16
0c
0d
0/
0a
07
b10000 u
b10000 x
15
1%
#400000
0%
#405000
0!
0^
0"
b10010 I
b10010 R
b10010 H
b10010 \
0j
0Y
0E
1q
1`
1i
1X
b10010 G
b10010 ]
05
06
1c
1/
b10001 1
b10001 B
b10001 _
b10001 p
b10001 e
17
b10001 9
b10001 K
b10001 W
b10001 h
b10001 b
b1001000010010 #
b1001000010010 -
b1001000010010 ?
b10010 '
b10010 &
1%
#410000
0%
#415000
1!
1^
1"
1E
0q
0`
0i
0X
1j
1Y
16
0c
0d
0/
0a
07
b10001 u
b10001 x
15
1%
#420000
0%
#425000
0!
0^
0"
b10011 I
b10011 R
b10011 H
b10011 \
0j
0Y
0E
1q
1`
1i
1X
b10011 G
b10011 ]
05
06
1c
1/
b10010 1
b10010 B
b10010 _
b10010 p
b10010 e
17
b10010 9
b10010 K
b10010 W
b10010 h
b10010 b
b1001100010011 #
b1001100010011 -
b1001100010011 ?
b10011 '
b10011 &
1%
#430000
0%
#435000
1!
1^
1"
1E
0q
0`
0i
0X
1j
1Y
16
0c
0d
0/
0a
07
b10010 u
b10010 x
15
1%
#440000
0%
#445000
0^
0"
0C
b10100 I
b10100 R
b10100 H
b10100 \
0j
0Y
0E
1q
1`
1i
1X
0!
b10100 G
b10100 ]
05
06
1c
1/
b10011 1
b10011 B
b10011 _
b10011 p
b10011 e
17
b10011 9
b10011 K
b10011 W
b10011 h
b10011 b
0*
b1010000010100 #
b1010000010100 -
b1010000010100 ?
b10100 '
b10100 &
1%
#450000
0%
#455000
1"
1E
0q
0`
0i
0X
1j
1Y
16
0c
0d
0/
0a
07
b10011 u
b10011 x
15
1%
#460000
0%
#465000
0j
0Y
05
06
1%
#470000
0%
#475000
1%
#480000
0%
#485000
1^
1C
1!
1*
1%
#490000
0%
#495000
0C
b10101 I
b10101 R
b10101 H
b10101 \
0^
0"
0!
b10101 G
b10101 ]
0E
1q
1`
1i
1X
0*
b1010100010101 #
b1010100010101 -
b1010100010101 ?
b10101 '
b10101 &
1c
1/
b10100 1
b10100 B
b10100 _
b10100 p
b10100 e
17
b10100 9
b10100 K
b10100 W
b10100 h
b10100 b
1%
#500000
0%
#505000
1!
1^
1"
1C
1j
1Y
1E
0q
0`
0i
0X
15
b10100 x
b10100 u
16
0c
0d
0/
0a
07
1*
1%
#510000
0%
#515000
0!
b10110 I
b10110 R
b10110 H
b10110 \
0^
0"
b10110 G
b10110 ]
0E
1q
1`
1i
1X
0j
0Y
b1011000010110 #
b1011000010110 -
b1011000010110 ?
b10110 '
b10110 &
06
1c
1/
b10101 1
b10101 B
b10101 _
b10101 p
b10101 e
17
b10101 9
b10101 K
b10101 W
b10101 h
b10101 b
05
1%
#520000
0%
#525000
1!
1^
1"
1j
1Y
1E
0q
0`
0i
0X
15
b10101 x
b10101 u
16
0c
0d
0/
0a
07
1%
#530000
0%
#535000
0!
b10111 I
b10111 R
b10111 H
b10111 \
0^
0"
b10111 G
b10111 ]
0E
1q
1`
1i
1X
0j
0Y
b1011100010111 #
b1011100010111 -
b1011100010111 ?
b10111 '
b10111 &
06
1c
1/
b10110 1
b10110 B
b10110 _
b10110 p
b10110 e
17
b10110 9
b10110 K
b10110 W
b10110 h
b10110 b
05
1%
#540000
0%
#545000
1!
1^
1"
1j
1Y
1E
0q
0`
0i
0X
15
b10110 x
b10110 u
16
0c
0d
0/
0a
07
1%
#550000
0%
#555000
0!
b11000 I
b11000 R
b11000 H
b11000 \
0^
0"
b11000 G
b11000 ]
0E
1q
1`
1i
1X
0j
0Y
b1100000011000 #
b1100000011000 -
b1100000011000 ?
b11000 '
b11000 &
06
1c
1/
b10111 1
b10111 B
b10111 _
b10111 p
b10111 e
17
b10111 9
b10111 K
b10111 W
b10111 h
b10111 b
05
1%
#560000
0%
#565000
1!
1^
1"
1j
1Y
1E
0q
0`
0i
0X
15
b10111 x
b10111 u
16
0c
0d
0/
0a
07
1%
#570000
0%
#575000
0!
b11001 I
b11001 R
b11001 H
b11001 \
0^
0"
b11001 G
b11001 ]
0E
1q
1`
1i
1X
0j
0Y
b1100100011001 #
b1100100011001 -
b1100100011001 ?
b11001 '
b11001 &
06
1c
1/
b11000 1
b11000 B
b11000 _
b11000 p
b11000 e
17
b11000 9
b11000 K
b11000 W
b11000 h
b11000 b
05
1%
#580000
0%
#585000
1!
1^
1"
1j
1Y
1E
0q
0`
0i
0X
15
b11000 x
b11000 u
16
0c
0d
0/
0a
07
1%
#590000
0%
#595000
0C
b11010 I
b11010 R
b11010 H
b11010 \
0^
0"
0!
b11010 G
b11010 ]
0E
1q
1`
1i
1X
0j
0Y
0*
b1101000011010 #
b1101000011010 -
b1101000011010 ?
b11010 '
b11010 &
06
1c
1/
b11001 1
b11001 B
b11001 _
b11001 p
b11001 e
17
b11001 9
b11001 K
b11001 W
b11001 h
b11001 b
05
1%
#600000
0%
#605000
1"
1j
1Y
1E
0q
0`
0i
0X
15
b11001 x
b11001 u
16
0c
0d
0/
0a
07
1%
#610000
0%
#615000
1^
1C
1!
0j
0Y
1*
06
05
1%
#620000
0%
#625000
0!
0^
0"
b11011 I
b11011 R
b11011 H
b11011 \
0E
1q
1`
1i
1X
b11011 G
b11011 ]
1c
1/
b11010 1
b11010 B
b11010 _
b11010 p
b11010 e
17
b11010 9
b11010 K
b11010 W
b11010 h
b11010 b
b1101100011011 #
b1101100011011 -
b1101100011011 ?
b11011 '
b11011 &
1%
#630000
0%
#635000
1!
1^
1"
1E
0q
0`
0i
0X
1j
1Y
16
0c
0d
0/
0a
07
b11010 u
b11010 x
15
1%
#640000
0%
#645000
0!
0^
0"
b11100 I
b11100 R
b11100 H
b11100 \
0j
0Y
0E
1q
1`
1i
1X
b11100 G
b11100 ]
05
06
1c
1/
b11011 1
b11011 B
b11011 _
b11011 p
b11011 e
17
b11011 9
b11011 K
b11011 W
b11011 h
b11011 b
b1110000011100 #
b1110000011100 -
b1110000011100 ?
b11100 '
b11100 &
1%
#650000
0%
#655000
1!
1^
1"
1E
0q
0`
0i
0X
1j
1Y
16
0c
0d
0/
0a
07
b11011 u
b11011 x
15
1%
#660000
0%
#665000
0^
0"
0C
b11101 I
b11101 R
b11101 H
b11101 \
0j
0Y
0E
1q
1`
1i
1X
0!
b11101 G
b11101 ]
05
06
1c
1/
b11100 1
b11100 B
b11100 _
b11100 p
b11100 e
17
b11100 9
b11100 K
b11100 W
b11100 h
b11100 b
0*
b1110100011101 #
b1110100011101 -
b1110100011101 ?
b11101 '
b11101 &
1%
#670000
0%
#675000
1"
1E
0q
0`
0i
0X
1j
1Y
16
0c
0d
0/
0a
07
b11100 u
b11100 x
15
1%
#680000
0%
#685000
0j
0Y
05
06
1%
#690000
0%
#695000
1%
#700000
0%
#705000
1%
#710000
0%
#715000
1^
1C
1!
1*
1%
#720000
0%
#725000
0^
0"
0C
b11110 I
b11110 R
b11110 H
b11110 \
0E
1q
1`
1i
1X
0!
b11110 G
b11110 ]
1c
1/
b11101 1
b11101 B
b11101 _
b11101 p
b11101 e
17
b11101 9
b11101 K
b11101 W
b11101 h
b11101 b
0*
b1111000011110 #
b1111000011110 -
b1111000011110 ?
b11110 '
b11110 &
1%
#730000
0%
#735000
1"
1E
0q
0`
0i
0X
1j
1Y
16
0c
0d
0/
0a
07
b11101 u
b11101 x
15
1%
#740000
0%
#745000
1^
1C
0j
0Y
1!
05
06
1*
1%
#750000
0%
#755000
0!
b11111 I
b11111 R
b11111 H
b11111 \
0^
0"
b11111 G
b11111 ]
0E
1q
1`
1i
1X
b1111100011111 #
b1111100011111 -
b1111100011111 ?
b11111 '
b11111 &
1c
1/
b11110 1
b11110 B
b11110 _
b11110 p
b11110 e
17
b11110 9
b11110 K
b11110 W
b11110 h
b11110 b
1%
#760000
0%
#765000
1!
1^
1"
1j
1Y
1E
0q
0`
0i
0X
15
b11110 x
b11110 u
16
0c
0d
0/
0a
07
1%
#770000
0%
#775000
0C
b100000 I
b100000 R
b100000 H
b100000 \
0^
0"
0!
b100000 G
b100000 ]
0E
1q
1`
1i
1X
0j
0Y
0*
b10000000100000 #
b10000000100000 -
b10000000100000 ?
b100000 '
b100000 &
06
1c
1/
b11111 1
b11111 B
b11111 _
b11111 p
b11111 e
17
b11111 9
b11111 K
b11111 W
b11111 h
b11111 b
05
1%
#780000
0%
#785000
1"
1j
1Y
1E
0q
0`
0i
0X
15
b11111 x
b11111 u
16
0c
0d
0/
0a
07
1%
#790000
0%
#795000
0j
0Y
06
05
1%
#800000
0%
#805000
1%
#810000
0%
#815000
1%
#820000
0%
#825000
1^
1C
1!
1*
1%
#830000
0%
#835000
0!
b100001 I
b100001 R
b100001 H
b100001 \
0^
0"
b100001 G
b100001 ]
0E
1q
1`
1i
1X
b10000100100001 #
b10000100100001 -
b10000100100001 ?
b100001 '
b100001 &
1c
1/
b100000 1
b100000 B
b100000 _
b100000 p
b100000 e
17
b100000 9
b100000 K
b100000 W
b100000 h
b100000 b
1%
#840000
0%
#845000
1!
1^
1"
1j
1Y
1E
0q
0`
0i
0X
15
b100000 x
b100000 u
16
0c
0d
0/
0a
07
1%
#850000
0%
#855000
0!
b100010 I
b100010 R
b100010 H
b100010 \
0^
0"
b100010 G
b100010 ]
0E
1q
1`
1i
1X
0j
0Y
b10001000100010 #
b10001000100010 -
b10001000100010 ?
b100010 '
b100010 &
06
1c
1/
b100001 1
b100001 B
b100001 _
b100001 p
b100001 e
17
b100001 9
b100001 K
b100001 W
b100001 h
b100001 b
05
1%
#860000
0%
#865000
1!
1^
1"
1j
1Y
1E
0q
0`
0i
0X
15
b100001 x
b100001 u
16
0c
0d
0/
0a
07
1%
#870000
0%
#875000
0!
b100011 I
b100011 R
b100011 H
b100011 \
0^
0"
b100011 G
b100011 ]
0E
1q
1`
1i
1X
0j
0Y
b10001100100011 #
b10001100100011 -
b10001100100011 ?
b100011 '
b100011 &
06
1c
1/
b100010 1
b100010 B
b100010 _
b100010 p
b100010 e
17
b100010 9
b100010 K
b100010 W
b100010 h
b100010 b
05
1%
#880000
0%
#885000
1!
1^
1"
1j
1Y
1E
0q
0`
0i
0X
15
b100010 x
b100010 u
16
0c
0d
0/
0a
07
1%
#890000
0%
#895000
0!
b100100 I
b100100 R
b100100 H
b100100 \
0^
0"
b100100 G
b100100 ]
0E
1q
1`
1i
1X
0j
0Y
b10010000100100 #
b10010000100100 -
b10010000100100 ?
b100100 '
b100100 &
06
1c
1/
b100011 1
b100011 B
b100011 _
b100011 p
b100011 e
17
b100011 9
b100011 K
b100011 W
b100011 h
b100011 b
05
1%
#900000
0%
#905000
1!
1^
1"
1j
1Y
1E
0q
0`
0i
0X
15
b100011 x
b100011 u
16
0c
0d
0/
0a
07
1%
#910000
0%
#915000
0C
b100101 I
b100101 R
b100101 H
b100101 \
0^
0"
0!
b100101 G
b100101 ]
0E
1q
1`
1i
1X
0j
0Y
0*
b10010100100101 #
b10010100100101 -
b10010100100101 ?
b100101 '
b100101 &
06
1c
1/
b100100 1
b100100 B
b100100 _
b100100 p
b100100 e
17
b100100 9
b100100 K
b100100 W
b100100 h
b100100 b
05
1%
#920000
0%
#925000
1"
1j
1Y
1E
0q
0`
0i
0X
15
b100100 x
b100100 u
16
0c
0d
0/
0a
07
1%
#930000
0%
#935000
1^
1C
1!
0j
0Y
1*
06
05
1%
#940000
0%
#945000
0!
0^
0"
b100110 I
b100110 R
b100110 H
b100110 \
0E
1q
1`
1i
1X
b100110 G
b100110 ]
1c
1/
b100101 1
b100101 B
b100101 _
b100101 p
b100101 e
17
b100101 9
b100101 K
b100101 W
b100101 h
b100101 b
b10011000100110 #
b10011000100110 -
b10011000100110 ?
b100110 '
b100110 &
1%
#950000
0%
#955000
1!
1^
1"
1E
0q
0`
0i
0X
1j
1Y
16
0c
0d
0/
0a
07
b100101 u
b100101 x
15
1%
#960000
0%
#965000
0!
0^
0"
b100111 I
b100111 R
b100111 H
b100111 \
0j
0Y
0E
1q
1`
1i
1X
b100111 G
b100111 ]
05
06
1c
1/
b100110 1
b100110 B
b100110 _
b100110 p
b100110 e
17
b100110 9
b100110 K
b100110 W
b100110 h
b100110 b
b10011100100111 #
b10011100100111 -
b10011100100111 ?
b100111 '
b100111 &
1%
#970000
0%
#975000
1!
1^
1"
1E
0q
0`
0i
0X
1j
1Y
16
0c
0d
0/
0a
07
b100110 u
b100110 x
15
1%
#980000
0%
#985000
0^
0"
0C
b101000 I
b101000 R
b101000 H
b101000 \
0j
0Y
0E
1q
1`
1i
1X
0!
b101000 G
b101000 ]
05
06
1c
1/
b100111 1
b100111 B
b100111 _
b100111 p
b100111 e
17
b100111 9
b100111 K
b100111 W
b100111 h
b100111 b
0*
b10100000101000 #
b10100000101000 -
b10100000101000 ?
b101000 '
b101000 &
1%
#990000
0%
#995000
1"
1E
0q
0`
0i
0X
1j
1Y
16
0c
0d
0/
0a
07
b100111 u
b100111 x
15
1%
#1000000
0%
#1005000
1^
1C
0j
0Y
1!
05
06
1*
1%
#1010000
0%
#1015000
0!
b101001 I
b101001 R
b101001 H
b101001 \
0^
0"
b101001 G
b101001 ]
0E
1q
1`
1i
1X
b10100100101001 #
b10100100101001 -
b10100100101001 ?
b101001 '
b101001 &
1c
1/
b101000 1
b101000 B
b101000 _
b101000 p
b101000 e
17
b101000 9
b101000 K
b101000 W
b101000 h
b101000 b
1%
#1020000
0%
#1025000
1!
1^
1"
1j
1Y
1E
0q
0`
0i
0X
15
b101000 x
b101000 u
16
0c
0d
0/
0a
07
1%
#1030000
0%
#1035000
0C
b101010 I
b101010 R
b101010 H
b101010 \
0^
0"
0!
b101010 G
b101010 ]
0E
1q
1`
1i
1X
0j
0Y
0*
b10101000101010 #
b10101000101010 -
b10101000101010 ?
b101010 '
b101010 &
06
1c
1/
b101001 1
b101001 B
b101001 _
b101001 p
b101001 e
17
b101001 9
b101001 K
b101001 W
b101001 h
b101001 b
05
1%
#1040000
0%
#1045000
1!
1^
1"
1C
1j
1Y
1E
0q
0`
0i
0X
15
b101001 x
b101001 u
16
0c
0d
0/
0a
07
1*
1%
#1050000
0%
#1055000
0!
b101011 I
b101011 R
b101011 H
b101011 \
0^
0"
b101011 G
b101011 ]
0E
1q
1`
1i
1X
0j
0Y
b10101100101011 #
b10101100101011 -
b10101100101011 ?
b101011 '
b101011 &
06
1c
1/
b101010 1
b101010 B
b101010 _
b101010 p
b101010 e
17
b101010 9
b101010 K
b101010 W
b101010 h
b101010 b
05
1%
#1060000
0%
#1065000
1!
1^
1"
1j
1Y
1E
0q
0`
0i
0X
15
b101010 x
b101010 u
16
0c
0d
0/
0a
07
1%
#1070000
0%
