AMBA/AXI/arbiter/sim/test.vcd
$date
	Tue Sep 13 21:15:36 2022
$end
$version
	Icarus Verilog
$end
$timescale
	1ps
$end
$scope module tb_hs_round_robin_arbiter $end
$var wire 8 ! fire_in [7:0] $end
$var wire 1 " valid_out $end
$var wire 8 # ready_in [7:0] $end
$var wire 1 $ payload_out $end
$var wire 1 % last_out $end
$var reg 1 & clk $end
$var reg 8 ' last_in [7:0] $end
$var reg 8 ( payload_in [7:0] $end
$var reg 1 ) ready_out $end
$var reg 1 * rstn $end
$var reg 8 + valid_in [7:0] $end
$scope begin genblk1[0] $end
$upscope $end
$scope begin genblk1[1] $end
$upscope $end
$scope begin genblk1[2] $end
$upscope $end
$scope begin genblk1[3] $end
$upscope $end
$scope begin genblk1[4] $end
$upscope $end
$scope begin genblk1[5] $end
$upscope $end
$scope begin genblk1[6] $end
$upscope $end
$scope begin genblk1[7] $end
$upscope $end
$scope begin genblk3 $end
$scope begin genblk4[0] $end
$upscope $end
$scope begin genblk4[1] $end
$upscope $end
$scope begin genblk4[2] $end
$upscope $end
$scope begin genblk4[3] $end
$upscope $end
$scope begin genblk4[4] $end
$upscope $end
$scope begin genblk4[5] $end
$upscope $end
$scope begin genblk4[6] $end
$upscope $end
$scope begin genblk4[7] $end
$upscope $end
$upscope $end
$scope module u_hs_round_robin_arbiter $end
$var wire 1 & clk $end
$var wire 8 , fire_in [7:0] $end
$var wire 8 - last_in [7:0] $end
$var wire 1 % last_out $end
$var wire 8 . payload_in [7:0] $end
$var wire 8 / ready_in [7:0] $end
$var wire 1 ) ready_out $end
$var wire 8 0 req [7:0] $end
$var wire 1 * rstn $end
$var wire 8 1 valid_in [7:0] $end
$var wire 1 " valid_out $end
$var wire 1 $ payload_out $end
$var wire 1 2 has_grant $end
$var wire 8 3 grant [7:0] $end
$var wire 1 4 chang_grant $end
$var reg 4 5 grant_id [3:0] $end
$var reg 8 6 grant_r [7:0] $end
$var reg 1 7 locker $end
$var integer 32 8 id [31:0] $end
$scope function log2 $end
$var integer 32 9 num [31:0] $end
$upscope $end
$scope begin genblk1 $end
$upscope $end
$scope module u_weight_round_robin_arbiter $end
$var wire 1 & clk $end
$var wire 1 : en $end
$var wire 8 ; grant [7:0] $end
$var wire 8 < mask_grant [7:0] $end
$var wire 8 = mask_req [7:0] $end
$var wire 8 > req [7:0] $end
$var wire 1 * rstn $end
$var wire 8 ? unmask_grant [7:0] $end
$var wire 1 @ has_mask_req $end
$var wire 6 A counter3 [5:0] $end
$var wire 6 B counter2 [5:0] $end
$var wire 6 C counter1 [5:0] $end
$var wire 6 D counter0 [5:0] $end
$var reg 4 E grant_id [3:0] $end
$var reg 8 F mask [7:0] $end
$var integer 32 G i [31:0] $end
$var integer 32 H id [31:0] $end
$scope function log2 $end
$var integer 32 I num [31:0] $end
$upscope $end
$upscope $end
$upscope $end
$upscope $end
$enddefinitions $end
#0
$dumpvars
bx I
b1000 H
b1000 G
b11111111 F
bx E
b1000 D
b111 C
b110 B
b101 A
0@
b0 ?
b0 >
b0 =
b0 <
b0 ;
1:
bx 9
b1000 8
07
b0 6
bx 5
04
b0 3
02
b0 1
b0 0
b0 /
b0 .
b0 -
b0 ,
b0 +
0*
0)
b0 (
b0 '
0&
x%
x$
b0 #
x"
b0 !
$end
#5000
b1000 G
1&
#10000
0&
#15000
b1000 G
1&
#20000
0&
1*
#25000
1)
1&
#25100
b1 E
b1000 H
12
b10 3
b10 ;
b10 <
1@
b1111110 =
b10 ?
b1111110 0
b1111110 >
b1111110 +
b1111110 1
#30000
0&
#35000
1"
0%
b10 ,
b10 !
0$
b1 5
b1000 8
b10 #
b10 /
b110 C
b10 6
0:
17
1&
#35100
b0 E
b1000 H
b1 3
b1 ;
b1 <
b1111111 =
b1 ?
b1111111 0
b1111111 >
b1111111 +
b1111111 1
#40000
0&
#45000
1$
b10 (
b10 .
1&
#50000
0&
#55000
b0 ,
b0 !
b0 #
b0 /
0$
b0 (
b0 .
0)
1&
#55100
0"
b11111101 =
b11111101 0
b11111101 >
b11111101 +
b11111101 1
#60000
0&
#65000
b10 #
b10 /
1)
1&
#65100
b10 ,
b11111111 =
1"
b10 !
b11111111 0
b11111111 >
b11111111 +
b11111111 1
#70000
0&
#75000
b0 ,
b0 !
b0 #
b0 /
1$
b10 (
b10 .
0)
1&
#80000
0&
#85000
1&
#90000
0&
#95000
1&
#100000
0&
#105000
1&
#110000
0&
#115000
b10 ,
b10 !
b10 #
b10 /
1)
1&
#120000
0&
#125000
0$
b0 (
b0 .
1&
#125100
b0 ,
b11111101 =
0"
b0 !
b11111101 0
b11111101 >
b11111101 +
b11111101 1
#130000
0&
#135000
1&
#135100
b10 ,
b11111111 =
1"
b10 !
b11111111 0
b11111111 >
b11111111 +
b11111111 1
#140000
0&
#145000
b0 ,
b0 !
b0 #
b0 /
0)
1$
b10 (
b10 .
1&
#150000
0&
#155000
1&
#160000
0&
#165000
1&
#170000
0&
#175000
1&
#180000
0&
#185000
b10 ,
b10 !
b10 #
b10 /
1)
1&
#190000
0&
#195000
b0 ,
b0 !
b0 #
b0 /
0$
b0 (
b0 .
0)
1&
#200000
0&
#205000
b10 ,
b10 !
b10 #
b10 /
1)
1&
#210000
0&
#215000
1$
b10 (
b10 .
1&
#220000
0&
#225000
b0 ,
b0 !
b0 #
b0 /
0)
0$
b0 (
b0 .
1&
#230000
0&
#235000
1&
#240000
0&
#245000
b10 ,
b10 !
b10 #
b10 /
1)
1&
#250000
0&
#255000
1$
b10 (
b10 .
1&
#260000
0&
#265000
b0 ,
b0 !
b0 #
b0 /
0)
0$
b0 (
b0 .
1&
#265100
b11111101 =
0"
b11111101 0
b11111101 >
b11111101 +
b11111101 1
#270000
0&
#275000
1&
#280000
0&
#285000
b10 #
b10 /
1)
1&
#290000
0&
#295000
b0 #
b0 /
0)
1&
#300000
0&
#305000
b10 #
b10 /
1)
1&
#305100
b10 ,
b11111111 =
1"
b10 !
b11111111 0
b11111111 >
b11111111 +
b11111111 1
#310000
0&
#315000
b0 ,
b0 !
b0 #
b0 /
1$
b10 (
b10 .
0)
1&
#315100
b11111101 =
0"
b11111101 0
b11111101 >
b11111101 +
b11111101 1
#320000
0&
#325000
1&
#330000
0&
#335000
1&
#335100
b11111111 =
1"
b11111111 0
b11111111 >
b11111111 +
b11111111 1
#340000
0&
#345000
b10 ,
b10 !
b10 #
b10 /
1)
1&
#350000
0&
#355000
0$
b0 (
b0 .
1&
#360000
0&
#365000
b0 ,
b0 !
b0 #
b0 /
0)
1$
b10 (
b10 .
1&
#370000
0&
#375000
1&
#380000
0&
#385000
b10 ,
b10 !
b10 #
b10 /
1)
1&
#390000
0&
#395000
0$
b0 (
b0 .
1&
#400000
0&
#405000
b0 ,
b0 !
1%
b0 #
b0 /
b10 '
b10 -
0)
1$
b10 (
b10 .
1&
#405100
b11111101 =
0"
b11111101 0
b11111101 >
b11111101 +
b11111101 1
#410000
0&
#415000
b10 #
b10 /
1)
1&
#415100
14
b10 ,
b11111111 =
1"
b10 !
b11111111 0
b11111111 >
b11111111 +
b11111111 1
#420000
0&
#425000
b0 ,
b0 !
04
b1000 8
0"
0%
b0 #
b0 /
b0 '
b0 -
b0 6
1:
07
0$
b0 (
b0 .
1&
#425100
b11111101 =
b11111101 0
b11111101 >
b11111101 +
b11111101 1
#430000
0&
#435000
1"
b1 ,
b1 !
b0 5
b1000 8
b1 #
b1 /
b111 D
b1 6
0:
17
1&
#440000
0&
#445000
1$
b1 (
b1 .
1&
#445100
b11111111 =
b11111111 0
b11111111 >
b11111111 +
b11111111 1
#450000
0&
#455000
b0 ,
b0 !
b0 #
b0 /
0$
b0 (
b0 .
0)
1&
#460000
0&
#465000
b1 ,
b1 !
b1 #
b1 /
1)
1&
#470000
0&
#475000
b0 ,
b0 !
b0 #
b0 /
1$
b1 (
b1 .
0)
1&
#475100
b1 E
b1000 H
b10 3
b10 ;
b10 <
b11111110 =
b10 ?
0"
b11111110 0
b11111110 >
b11111110 +
b11111110 1
#480000
0&
#485000
1&
#490000
0&
#495000
b1 #
b1 /
1)
1&
#495100
b0 E
b1000 H
b1 3
b1 ;
b1 <
b1 ,
b11111111 =
b1 ?
1"
b1 !
b11111111 0
b11111111 >
b11111111 +
b11111111 1
#500000
0&
#505000
b0 ,
b0 !
b0 #
b0 /
0)
0$
b0 (
b0 .
1&
#505100
b1 E
b1000 H
b10 3
b10 ;
b10 <
b11111110 =
b10 ?
0"
b11111110 0
b11111110 >
b11111110 +
b11111110 1
#510000
0&
#515000
b1 #
b1 /
1)
1&
#515100
b0 E
b1000 H
b1 3
b1 ;
b1 <
b1 ,
b11111111 =
b1 ?
1"
b1 !
b11111111 0
b11111111 >
b11111111 +
b11111111 1
#520000
0&
#525000
1$
b1 (
b1 .
1&
#530000
0&
#535000
0$
b0 (
b0 .
1&
#535100
b1 E
b1000 H
b10 3
b10 ;
b10 <
b0 ,
b11111110 =
b10 ?
0"
b0 !
b11111110 0
b11111110 >
b11111110 +
b11111110 1
#540000
0&
#545000
1&
#545100
b0 E
b1000 H
b1 3
b1 ;
b1 <
b1 ,
b11111111 =
b1 ?
1"
b1 !
b11111111 0
b11111111 >
b11111111 +
b11111111 1
#550000
0&
#555000
1%
14
b1 '
b1 -
1$
b1 (
b1 .
1&
#555100
b1 E
b1000 H
b10 3
b10 ;
04
b10 <
b0 ,
b11111110 =
b10 ?
0"
b0 !
b11111110 0
b11111110 >
b11111110 +
b11111110 1
#560000
0&
#565000
b0 #
b0 /
0)
1&
#570000
0&
#575000
1&
#580000
0&
#585000
1&
#590000
0&
#595000
b1 #
b1 /
1)
1&
#595100
b0 E
b1000 H
b1 3
b1 ;
14
b1 <
b1 ,
b11111111 =
b1 ?
1"
b1 !
b11111111 0
b11111111 >
b11111111 +
b11111111 1
#600000
0&
#605000
b0 ,
b0 !
04
b1000 8
0"
0%
b0 #
b0 /
b0 '
b0 -
b0 6
1:
07
0$
b0 (
b0 .
1&
#610000
0&
#615000
b1 ,
b1 !
b1000 8
1"
b1 #
b1 /
b110 D
b1 6
0:
17
1&
#620000
0&
#625000
1$
b1 (
b1 .
1&
#625100
b1 E
b1000 H
b10 3
b10 ;
b10 <
b0 ,
b11111110 =
b10 ?
0"
b0 !
b11111110 0
b11111110 >
b11111110 +
b11111110 1
#630000
0&
#635000
1&
#640000
0&
#645000
1&
#650000
0&
#655000
1&
#660000
0&
#665000
1&
#665100
b0 E
b1000 H
b1 3
b1 ;
b1 <
b1 ,
b11111111 =
b1 ?
1"
b1 !
b11111111 0
b11111111 >
b11111111 +
b11111111 1
#670000
0&
#675000
0$
b0 (
b0 .
1&
#680000
0&
#685000
b0 ,
b0 !
b0 #
b0 /
0)
1$
b1 (
b1 .
1&
#685100
b1 E
b1000 H
b10 3
b10 ;
b10 <
b11111110 =
b10 ?
0"
b11111110 0
b11111110 >
b11111110 +
b11111110 1
#690000
0&
#695000
1&
#695100
b0 E
b1000 H
b1 3
b1 ;
b1 <
b11111111 =
b1 ?
1"
b11111111 0
b11111111 >
b11111111 +
b11111111 1
#700000
0&
#705000
1&
#710000
0&
#715000
1&
#720000
0&
#725000
1&
#730000
0&
#735000
b1 ,
b1 !
b1 #
b1 /
1)
1&
#740000
0&
#745000
b0 ,
b0 !
b0 #
b0 /
0)
0$
b0 (
b0 .
1&
#750000
0&
#755000
1&
#760000
0&
#765000
b1 ,
b1 !
b1 #
b1 /
1)
1&
#770000
0&
#775000
b0 ,
b0 !
b0 #
b0 /
1$
b1 (
b1 .
0)
1&
#775100
b1 E
b1000 H
b10 3
b10 ;
b10 <
b11111110 =
b10 ?
0"
b11111110 0
b11111110 >
b11111110 +
b11111110 1
#780000
0&
#785000
b1 #
b1 /
1)
1&
#790000
0&
#795000
b0 #
b0 /
0)
1&
#800000
0&
#805000
1&
#805100
b0 E
b1000 H
b1 3
b1 ;
b1 <
b11111111 =
b1 ?
1"
b11111111 0
b11111111 >
b11111111 +
b11111111 1
#810000
0&
#815000
b1 ,
b1 !
b1 #
b1 /
1)
1&
#820000
0&
#825000
0$
b0 (
b0 .
1&
#830000
0&
#835000
1%
14
b1 '
b1 -
1$
b1 (
b1 .
1&
#840000
0&
#845000
b0 ,
b0 !
04
b1000 8
0"
0%
b0 #
b0 /
b0 '
b0 -
0)
b0 6
1:
07
0$
b0 (
b0 .
1&
#845100
b1 E
b1000 H
b10 3
b10 ;
b10 <
b11111110 =
b10 ?
b11111110 0
b11111110 >
b11111110 +
b11111110 1
#850000
0&
#855000
1"
b1 5
b1000 8
b101 C
b10 6
0:
17
1&
#855100
b0 E
b1000 H
b1 3
b1 ;
b1 <
b11111111 =
b1 ?
b11111111 0
b11111111 >
b11111111 +
b11111111 1
#860000
0&
#865000
1&
#870000
0&
#875000
1&
#880000
0&
#885000
b10 ,
b10 !
b10 #
b10 /
1)
1&
#890000
0&
#895000
1$
b10 (
b10 .
1&
#895100
b0 ,
b11111101 =
0"
b0 !
b11111101 0
b11111101 >
b11111101 +
b11111101 1
#900000
0&
#905000
b0 #
b0 /
0)
1&
#910000
0&
#915000
b10 #
b10 /
1)
1&
#915100
b10 ,
b11111111 =
1"
b10 !
b11111111 0
b11111111 >
b11111111 +
b11111111 1
#920000
0&
#925000
b0 ,
b0 !
b0 #
b0 /
0)
0$
b0 (
b0 .
1&
#925100
b11111101 =
0"
b11111101 0
b11111101 >
b11111101 +
b11111101 1
#930000
0&
#935000
1&
#935100
b11111111 =
1"
b11111111 0
b11111111 >
b11111111 +
b11111111 1
#940000
0&
#945000
b10 ,
b10 !
b10 #
b10 /
1)
1&
#950000
0&
#955000
b0 ,
b0 !
b0 #
b0 /
1$
b10 (
b10 .
0)
1&
#955100
b11111101 =
0"
b11111101 0
b11111101 >
b11111101 +
b11111101 1
#960000
0&
#965000
b10 #
b10 /
1)
1&
#970000
0&
#975000
b0 #
b0 /
0)
1&
#980000
0&
#985000
1&
#985100
b11111111 =
1"
b11111111 0
b11111111 >
b11111111 +
b11111111 1
#990000
0&
#995000
1&
#1000000
0&
#1005000
1&
#1010000
0&
#1015000
b10 ,
b10 !
b10 #
b10 /
1)
1&
#1020000
0&
#1025000
0$
b0 (
b0 .
1&
#1025100
b0 ,
b11111101 =
0"
b0 !
b11111101 0
b11111101 >
b11111101 +
b11111101 1
#1030000
0&
#1035000
1&
#1040000
0&
#1045000
b0 #
b0 /
0)
1&
#1050000
0&
#1055000
1&
#1055100
b11111111 =
1"
b11111111 0
b11111111 >
b11111111 +
b11111111 1
#1060000
0&
#1065000
1&
#1070000
0&
#1075000
1&
#1080000
0&
#1085000
1&
#1090000
0&
#1095000
1&
#1100000
0&
#1105000
b10 ,
b10 !
b10 #
b10 /
1)
1&
#1110000
0&
#1115000
1$
b10 (
b10 .
1&
#1120000
0&
#1125000
0$
b0 (
b0 .
1&
#1125100
b0 ,
b11111101 =
0"
b0 !
b11111101 0
b11111101 >
b11111101 +
b11111101 1
#1130000
0&
#1135000
1&
#1135100
b10 ,
b11111111 =
1"
b10 !
b11111111 0
b11111111 >
b11111111 +
b11111111 1
#1140000
0&
#1145000
b0 ,
b0 !
b0 #
b0 /
0)
1$
b10 (
b10 .
1&
#1145100
b11111101 =
0"
b11111101 0
b11111101 >
b11111101 +
b11111101 1
#1150000
0&
#1155000
b10 #
b10 /
1)
1&
#1155100
b10 ,
b11111111 =
1"
b10 !
b11111111 0
b11111111 >
b11111111 +
b11111111 1
#1160000
0&
#1165000
0$
b0 (
b0 .
1&
#1170000
0&
#1175000
1$
b10 (
b10 .
1&
#1175100
b0 ,
b11111101 =
0"
b0 !
b11111101 0
b11111101 >
b11111101 +
b11111101 1
#1180000
0&
#1185000
1&
#1185100
b10 ,
b11111111 =
1"
b10 !
b11111111 0
b11111111 >
b11111111 +
b11111111 1
#1190000
0&
#1195000
b0 ,
b0 !
b0 #
b0 /
0$
b0 (
b0 .
0)
1&
#1195100
b11111101 =
0"
b11111101 0
b11111101 >
b11111101 +
b11111101 1
#1200000
0&
#1205000
1&
#1210000
0&
#1215000
b10 #
b10 /
1)
1&
#1215100
b10 ,
b11111111 =
1"
b10 !
b11111111 0
b11111111 >
b11111111 +
b11111111 1
#1220000
0&
#1225000
b0 ,
b0 !
b0 #
b0 /
0)
1$
b10 (
b10 .
1&
#1225100
b11111101 =
0"
b11111101 0
b11111101 >
b11111101 +
b11111101 1
#1230000
0&
#1235000
b10 #
b10 /
1)
1&
#1240000
0&
#1245000
1&
#1250000
0&
#1255000
b0 #
b0 /
0)
1&
#1260000
0&
#1265000
1&
#1265100
b11111111 =
1"
b11111111 0
b11111111 >
b11111111 +
b11111111 1
#1270000
0&
#1275000
1&
#1280000
0&
#1285000
b10 ,
b10 !
b10 #
b10 /
1)
1&
#1290000
0&
#1295000
0$
b0 (
b0 .
1&
#1300000
0&
#1305000
b0 ,
b0 !
b0 #
b0 /
0)
1$
b10 (
b10 .
1&
#1305100
b11111101 =
0"
b11111101 0
b11111101 >
b11111101 +
b11111101 1
#1310000
0&
#1315000
1&
#1315100
b11111111 =
1"
b11111111 0
b11111111 >
b11111111 +
b11111111 1
#1320000
0&
#1325000
1&
#1330000
0&
#1335000
1&
#1340000
0&
#1345000
b10 ,
b10 !
b10 #
b10 /
1)
1&
#1350000
0&
#1355000
b0 ,
b0 !
b0 #
b0 /
0$
b0 (
b0 .
0)
1&
#1355100
b11111101 =
0"
b11111101 0
b11111101 >
b11111101 +
b11111101 1
#1360000
0&
#1365000
1&
#1370000
0&
#1375000
b10 #
b10 /
1)
1&
#1380000
0&
#1385000
b0 #
b0 /
0)
1&
#1390000
0&
#1395000
b10 #
b10 /
1)
1&
#1395100
b10 ,
b11111111 =
1"
b10 !
b11111111 0
b11111111 >
b11111111 +
b11111111 1
#1400000
0&
#1405000
1%
14
b10 '
b10 -
1$
b10 (
b10 .
1&
#1405100
04
b0 ,
b11111101 =
0"
b0 !
b11111101 0
b11111101 >
b11111101 +
b11111101 1
#1410000
0&
#1415000
1&
#1415100
14
b10 ,
b11111111 =
1"
b10 !
b11111111 0
b11111111 >
b11111111 +
b11111111 1
#1420000
0&
#1425000
b0 ,
b0 !
04
b1000 8
0"
0%
b0 #
b0 /
b0 '
b0 -
0)
b0 6
1:
07
0$
b0 (
b0 .
1&
#1430000
0&
#1435000
1"
b1 ,
b1 !
b0 5
b1000 8
b1 #
b1 /
b101 D
b1 6
0:
17
1)
1&
#1440000
0&
#1445000
1$
b1 (
b1 .
1&
#1450000
0&
#1455000
b0 ,
b0 !
b0 #
b0 /
0$
b0 (
b0 .
0)
1&
#1455100
b1 E
b1000 H
b10 3
b10 ;
b10 <
b11111110 =
b10 ?
0"
b11111110 0
b11111110 >
b11111110 +
b11111110 1
#1460000
0&
#1465000
1&
#1465100
b0 E
b1000 H
b1 3
b1 ;
b1 <
b11111111 =
b1 ?
1"
b11111111 0
b11111111 >
b11111111 +
b11111111 1
#1470000
0&
#1475000
1&
#1480000
0&
#1485000
b1 ,
b1 !
b1 #
b1 /
1)
1&
#1490000
0&
#1495000
1$
b1 (
b1 .
1&
#1495100
b1 E
b1000 H
b10 3
b10 ;
b10 <
b0 ,
b11111110 =
b10 ?
0"
b0 !
b11111110 0
b11111110 >
b11111110 +
b11111110 1
#1500000
0&
#1505000
1&
#1510000
0&
#1515000
b0 #
b0 /
0)
1&
#1520000
0&
#1525000
1&
#1525100
b0 E
b1000 H
b1 3
b1 ;
b1 <
b11111111 =
b1 ?
1"
b11111111 0
b11111111 >
b11111111 +
b11111111 1
#1530000
0&
#1535000
b1 ,
b1 !
b1 #
b1 /
1)
1&
#1540000
0&
#1545000
b0 ,
b0 !
b0 #
b0 /
0)
0$
b0 (
b0 .
1&
#1550000
0&
#1555000
b1 ,
b1 !
b1 #
b1 /
1)
1&
#1560000
0&
#1565000
1$
b1 (
b1 .
1&
#1565100
b1 E
b1000 H
b10 3
b10 ;
b10 <
b0 ,
b11111110 =
b10 ?
0"
b0 !
b11111110 0
b11111110 >
b11111110 +
b11111110 1
#1570000
0&
#1575000
b0 #
b0 /
0)
1&
#1580000
0&
#1585000
1&
#1585100
b0 E
b1000 H
b1 3
b1 ;
b1 <
b11111111 =
b1 ?
1"
b11111111 0
b11111111 >
b11111111 +
b11111111 1
#1590000
0&
#1595000
1&
#1600000
0&
#1605000
1&
#1610000
0&
#1615000
b1 ,
b1 !
b1 #
b1 /
1)
1&
#1620000
0&
#1625000
0$
b0 (
b0 .
1&
#1630000
0&
#1635000
1%
14
b1 '
b1 -
1$
b1 (
b1 .
1&
#1640000
0&
#1645000
b0 ,
b0 !
04
b1000 8
0"
0%
b0 #
b0 /
b0 '
b0 -
b0 6
1:
07
0$
b0 (
b0 .
1&
#1645100
b1 E
b1000 H
b10 3
b10 ;
b10 <
b11111110 =
b10 ?
b11111110 0
b11111110 >
b11111110 +
b11111110 1
#1650000
0&
#1655000
1"
b10 ,
b10 !
b1 5
b1000 8
b10 #
b10 /
b100 C
b10 6
0:
17
1&
#1655100
b0 E
b1000 H
b1 3
b1 ;
b1 <
b11111111 =
b1 ?
b11111111 0
b11111111 >
b11111111 +
b11111111 1
#1660000
0&
#1665000
b0 ,
b0 !
b0 #
b0 /
0)
1$
b10 (
b10 .
1&
#1665100
b11111101 =
0"
b11111101 0
b11111101 >
b11111101 +
b11111101 1
#1670000
0&
#1675000
1&
#1680000
0&
#1685000
1&
#1690000
0&
#1695000
b10 #
b10 /
1)
1&
#1695100
b10 ,
b11111111 =
1"
b10 !
b11111111 0
b11111111 >
b11111111 +
b11111111 1
#1700000
0&
#1705000
0$
b0 (
b0 .
1&
#1710000
0&
#1715000
1$
b10 (
b10 .
1&
#1720000
0&
#1725000
b0 ,
b0 !
b0 #
b0 /
0)
0$
b0 (
b0 .
1&
#1730000
0&
#1735000
b10 ,
b10 !
b10 #
b10 /
1)
1&
#1740000
0&
#1745000
1$
b10 (
b10 .
1&
#1750000
0&
#1755000
0$
b0 (
b0 .
1&
#1760000
0&
#1765000
1$
b10 (
b10 .
1&
#1770000
0&
#1775000
0$
b0 (
b0 .
1&
#1775100
b0 ,
b11111101 =
0"
b0 !
b11111101 0
b11111101 >
b11111101 +
b11111101 1
#1780000
0&
#1785000
1&
#1790000
0&
#1795000
1&
#1800000
0&
#1805000
b0 #
b0 /
0)
1&
#1810000
0&
#1815000
1&
#1815100
b11111111 =
1"
b11111111 0
b11111111 >
b11111111 +
b11111111 1
#1820000
0&
#1825000
1&
#1830000
0&
#1835000
1&
#1840000
0&
#1845000
1&
#1850000
0&
#1855000
1&
#1860000
0&
#1865000
1&
#1870000
0&
#1875000
1&
#1880000
0&
#1885000
b10 ,
b10 !
b10 #
b10 /
1)
1&
#1890000
0&
#1895000
b0 ,
b0 !
b0 #
b0 /
1$
b10 (
b10 .
0)
1&
#1895100
b11111101 =
0"
b11111101 0
b11111101 >
b11111101 +
b11111101 1
#1900000
0&
#1905000
1&
#1905100
b11111111 =
1"
b11111111 0
b11111111 >
b11111111 +
b11111111 1
#1910000
0&
#1915000
1&
#1920000
0&
#1925000
1&
#1930000
0&
#1935000
1&
#1940000
0&
#1945000
b10 ,
b10 !
b10 #
b10 /
1)
1&
#1950000
0&
#1955000
0$
b0 (
b0 .
1&
#1960000
0&
#1965000
1$
b10 (
b10 .
1&
#1970000
0&
#1975000
b0 ,
b0 !
b0 #
b0 /
0$
b0 (
b0 .
0)
1&
#1980000
0&
#1985000
b10 ,
b10 !
b10 #
b10 /
1)
1&
#1990000
0&
#1995000
1$
b10 (
b10 .
1&
#1995100
b0 ,
b11111101 =
0"
b0 !
b11111101 0
b11111101 >
b11111101 +
b11111101 1
#2000000
0&
#2005000
b0 #
b0 /
0)
1&
#2005100
b11111111 =
1"
b11111111 0
b11111111 >
b11111111 +
b11111111 1
#2010000
0&
#2015000
1&
#2020000
0&
#2025000
b10 ,
b10 !
b10 #
b10 /
1)
1&
#2030000
0&
#2035000
0$
b0 (
b0 .
1&
#2035100
b0 ,
b11111101 =
0"
b0 !
b11111101 0
b11111101 >
b11111101 +
b11111101 1
#2040000
0&
#2045000
b0 #
b0 /
0)
1&
#2045100
b11111111 =
1"
b11111111 0
b11111111 >
b11111111 +
b11111111 1
#2050000
0&
#2055000
1&
#2060000
0&
#2065000
b10 ,
b10 !
b10 #
b10 /
1)
1&
#2070000
0&
#2075000
1%
b0 ,
b0 !
b10 '
b10 -
b0 #
b0 /
1$
b10 (
b10 .
0)
1&
#2075100
b11111101 =
0"
b11111101 0
b11111101 >
b11111101 +
b11111101 1
#2080000
0&
#2085000
1&
#2090000
0&
#2095000
b10 #
b10 /
1)
1&
#2095100
14
b10 ,
b11111111 =
1"
b10 !
b11111111 0
b11111111 >
b11111111 +
b11111111 1
#2100000
0&
#2105000
b0 ,
b0 !
04
b1000 8
0"
0%
b0 #
b0 /
b0 '
b0 -
b0 6
1:
07
0$
b0 (
b0 .
1&
#2110000
0&
#2115000
1"
b0 5
b1000 8
b100 D
b1 6
0:
17
0)
1&
#2120000
0&
#2125000
b1 ,
b1 !
b1 #
b1 /
1)
1&
#2130000
0&
#2135000
1$
b1 (
b1 .
1&
#2140000
0&
#2145000
0$
b0 (
b0 .
1&
#2150000
0&
#2155000
1$
b1 (
b1 .
1&
#2160000
0&
#2165000
0$
b0 (
b0 .
1&
#2165100
b1 E
b1000 H
b10 3
b10 ;
b10 <
b0 ,
b11111110 =
b10 ?
0"
b0 !
b11111110 0
b11111110 >
b11111110 +
b11111110 1
#2170000
0&
#2175000
b0 #
b0 /
0)
1&
#2175100
b0 E
b1000 H
b1 3
b1 ;
b1 <
b11111111 =
b1 ?
1"
b11111111 0
b11111111 >
b11111111 +
b11111111 1
#2180000
0&
#2185000
1&
#2190000
0&
#2195000
1&
#2200000
0&
#2205000
b1 ,
b1 !
b1 #
b1 /
1)
1&
#2210000
0&
#2215000
b0 ,
b0 !
b0 #
b0 /
1$
b1 (
b1 .
0)
1&
#2215100
b1 E
b1000 H
b10 3
b10 ;
b10 <
b11111110 =
b10 ?
0"
b11111110 0
b11111110 >
b11111110 +
b11111110 1
#2220000
0&
#2225000
1&
#2230000
0&
#2235000
1&
#2235100
b0 E
b1000 H
b1 3
b1 ;
b1 <
b11111111 =
b1 ?
1"
b11111111 0
b11111111 >
b11111111 +
b11111111 1
#2240000
0&
#2245000
1&
#2250000
0&
#2255000
1&
#2260000
0&
#2265000
1&
#2270000
0&
#2275000
1&
#2280000
0&
#2285000
1&
#2290000
0&
#2295000
1&
#2300000
0&
#2305000
b1 ,
b1 !
b1 #
b1 /
1)
1&
#2310000
0&
#2315000
b0 ,
b0 !
b0 #
b0 /
0$
b0 (
b0 .
0)
1&
#2320000
0&
#2325000
1&
#2330000
0&
#2335000
1&
#2340000
0&
#2345000
b1 ,
b1 !
b1 #
b1 /
1)
1&
#2350000
0&
#2355000
1%
b0 ,
b0 !
b1 '
b1 -
b0 #
b0 /
1$
b1 (
b1 .
0)
1&
#2360000
0&
#2365000
b1 ,
b1 !
14
b1 #
b1 /
1)
1&
#2370000
0&
#2375000
b0 ,
b0 !
04
b0 '
b0 -
b1000 8
0"
0%
b0 #
b0 /
0$
b0 (
b0 .
b0 6
1:
07
0)
1&
#2380000
0&
#2385000
b1000 8
1"
b1 6
0:
17
b11 D
1&
#2390000
0&
#2395000
b1 ,
b1 !
b1 #
b1 /
1)
1&
#2400000
0&
#2405000
b0 ,
b0 !
b0 #
b0 /
0)
1$
b1 (
b1 .
1&
#2405100
b1 E
b1000 H
b10 3
b10 ;
b10 <
b11111110 =
b10 ?
0"
b11111110 0
b11111110 >
b11111110 +
b11111110 1
#2410000
0&
#2415000
1&
#2420000
0&
#2425000
1&
#2425100
b0 E
b1000 H
b1 3
b1 ;
b1 <
b11111111 =
b1 ?
1"
b11111111 0
b11111111 >
b11111111 +
b11111111 1
#2430000
0&
#2435000
b1 ,
b1 !
b1 #
b1 /
1)
1&
#2440000
0&
#2445000
0$
b0 (
b0 .
1&
#2445100
b1 E
b1000 H
b10 3
b10 ;
b10 <
b0 ,
b11111110 =
b10 ?
0"
b0 !
b11111110 0
b11111110 >
b11111110 +
b11111110 1
#2450000
0&
#2455000
1&
#2460000
0&
#2465000
b0 #
b0 /
0)
1&
#2465100
b0 E
b1000 H
b1 3
b1 ;
b1 <
b11111111 =
b1 ?
1"
b11111111 0
b11111111 >
b11111111 +
b11111111 1
#2470000
0&
#2475000
b1 ,
b1 !
b1 #
b1 /
1)
1&
#2480000
0&
#2485000
1$
b1 (
b1 .
1&
#2490000
0&
#2495000
b0 ,
b0 !
b0 #
b0 /
0$
b0 (
b0 .
0)
1&
#2500000
0&
#2505000
b1 ,
b1 !
b1 #
b1 /
1)
1&
#2510000
0&
#2515000
b0 ,
b0 !
b0 #
b0 /
1$
b1 (
b1 .
0)
1&
#2515100
b1 E
b1000 H
b10 3
b10 ;
b10 <
b11111110 =
b10 ?
0"
b11111110 0
b11111110 >
b11111110 +
b11111110 1
#2520000
0&
#2525000
b1 #
b1 /
1)
1&
#2525100
b0 E
b1000 H
b1 3
b1 ;
b1 <
b1 ,
b11111111 =
b1 ?
1"
b1 !
b11111111 0
b11111111 >
b11111111 +
b11111111 1
#2530000
0&
#2535000
b0 ,
b0 !
b0 #
b0 /
0$
b0 (
b0 .
0)
1&
#2535100
b1 E
b1000 H
b10 3
b10 ;
b10 <
b11111110 =
b10 ?
0"
b11111110 0
b11111110 >
b11111110 +
b11111110 1
#2540000
0&
#2545000
b1 #
b1 /
1)
1&
#2545100
b0 E
b1000 H
b1 3
b1 ;
b1 <
b1 ,
b11111111 =
b1 ?
1"
b1 !
b11111111 0
b11111111 >
b11111111 +
b11111111 1
#2550000
0&
